{"paginator":{"items":6070,"lastPage":99,"page":1},"rateCount":{"picNum":198,"shop":0,"total":6070,"used":153},"rateDanceInfo":{"currentMilles":1477271490790,"intervalMilles":727180800,"showChooseTopic":false,"storeType":4},"rateList":[{"aliMallSeller":false,"anony":true,"appendComment":"","attributes":"worth_score:43,tmall_vip_level:3,wap:1,worth_order_score:3462.6,enableTime:1477270820328,importFrom:10,spuId:215715260,leafCatId:211104","attributesMap":{"wap":"1","leafCatId":"211104","tmall_vip_level":"3","spuId":"215715260","importFrom":"10","enableTime":"1477270820328","worth_order_score":"3462.6","worth_score":"43"},"aucNumId":"","auctionPicUrl":"","auctionPrice":"","auctionSku":"","auctionTitle":"","buyCount":0,"carServiceLocation":"","cmsSource":"天猫","displayRatePic":"","displayRateSum":0,"displayUserLink":"","displayUserNick":"田***汐","displayUserNumId":"","displayUserRateLink":"","dsr":0.0,"fromMall":true,"fromMemory":0,"gmtCreateTime":1477270820000,"id":289306221639,"pics":"","picsSmall":"","position":"","rateContent":"物流超快，西游用这个牌子，不上火，也不甜，很好","rateDate":"2016-10-24 09:00:20","reply":"","sellerId":725677994,"serviceRateContent":"","structuredRateList":[],"tamllSweetLevel":3,"tmallSweetPic":"tmall-grade-t3-18.png","tradeEndTime":1477270633000,"tradeId":"","useful":true,"userIdEncryption":"","userInfo":"","userVipLevel":0,"userVipPic":""},{"aliMallSeller":false,"anony":true,"appendComment":"","attributes":"worth_score:17,tmall_vip_level:0,wap:1,worth_order_score:3436.6,enableTime:1477268265135,importFrom:10,spuId:215715260,ttid:600000@taobao_android_6.1.1,leafCatId:211104","attributesMap":{"wap":"1","ttid":"600000@taobao_android_6.1.1","leafCatId":"211104","tmall_vip_level":"0","spuId":"215715260","importFrom":"10","enableTime":"1477268265135","worth_order_score":"3436.6","worth_score":"17"},"aucNumId":"","auctionPicUrl":"","auctionPrice":"","auctionSku":"","auctionTitle":"","buyCount":0,"carServiceLocation":"","cmsSource":"天猫","displayRatePic":"","displayRateSum":0,"displayUserLink":"","displayUserNick":"江***i","displayUserNumId":"","displayUserRateLink":"","dsr":0.0,"fromMall":true,"fromMemory":0,"gmtCreateTime":1477268265000,"id":289341430906,"pics":"","picsSmall":"","position":"","rateContent":"好，","rateDate":"2016-10-24 08:17:45","reply":"","sellerId":725677994,"serviceRateContent":"","structuredRateList":[],"tamllSweetLevel":0,"tmallSweetPic":"","tradeEndTime":1476529417000,"tradeId":"","useful":true,"userIdEncryption":"","userInfo":"","userVipLevel":0,"userVipPic":""},{"aliMallSeller":false,"anony":true,"appendComment":"","attributes":"worth_score:31,tmall_vip_level:0,wap:1,worth_order_score:3450.6,enableTime:1477268218916,importFrom:10,spuId:215715260,ttid:600000@taobao_android_6.1.1,leafCatId:211104","attributesMap":{"wap":"1","ttid":"600000@taobao_android_6.1.1","leafCatId":"211104","tmall_vip_level":"0","spuId":"215715260","importFrom":"10","enableTime":"1477268218916","worth_order_score":"3450.6","worth_score":"31"},"aucNumId":"","auctionPicUrl":"","auctionPrice":"","auctionSku":"","auctionTitle":"","buyCount":0,"carServiceLocation":"","cmsSource":"天猫","displayRatePic":"","displayRateSum":0,"displayUserLink":"","displayUserNick":"江***i","displayUserNumId":"","displayUserRateLink":"","dsr":0.0,"fromMall":true,"fromMemory":0,"gmtCreateTime":1477268219000,"id":289311559128,"pics":"","picsSmall":"","position":"","rateContent":"一直在天猫超市买这奶粉，非常好！","rateDate":"2016-10-24 08:16:59","reply":"","sellerId":725677994,"serviceRateContent":"","structuredRateList":[],"tamllSweetLevel":0,"tmallSweetPic":"","tradeEndTime":1477184851000,"tradeId":"","useful":true,"userIdEncryption":"","userInfo":"","userVipLevel":0,"userVipPic":""},{"aliMallSeller":false,"anony":true,"appendComment":"","attributes":"worth_score:35,tmall_vip_level:2,wap:1,worth_order_score:3454.4,enableTime:1477260535419,importFrom:10,spuId:215715260,ttid:270200@taobao_android_5.4.12,leafCatId:211104","attributesMap":{"wap":"1","ttid":"270200@taobao_android_5.4.12","leafCatId":"211104","tmall_vip_level":"2","spuId":"215715260","importFrom":"10","enableTime":"1477260535419","worth_order_score":"3454.4","worth_score":"35"},"aucNumId":"","auctionPicUrl":"","auctionPrice":"","auctionSku":"","auctionTitle":"","buyCount":0,"carServiceLocation":"","cmsSource":"天猫","displayRatePic":"","displayRateSum":0,"displayUserLink":"","displayUserNick":"x***g","displayUserNumId":"","displayUserRateLink":"","dsr":0.0,"fromMall":true,"fromMemory":0,"gmtCreateTime":1477260535000,"id":289223121299,"pics":"","picsSmall":"","position":"","rateContent":"奶粉喝了几次了，不知是没搅匀，还是奶粉不好，有些沉淀在杯底，以前喝这牌子的不这样啊！不知怎么回事","rateDate":"2016-10-24 06:08:55","reply":"","sellerId":725677994,"serviceRateContent":"","structuredRateList":[],"tamllSweetLevel":2,"tmallSweetPic":"tmall-grade-t2-18.png","tradeEndTime":1477260382000,"tradeId":"","useful":true,"userIdEncryption":"","userInfo":"","userVipLevel":0,"userVipPic":""},{"aliMallSeller":false,"anony":true,"appendComment":"","attributes":"worth_score:63,tmall_vip_level:0,wap:1,worth_order_score:3482.4,enableTime:1477258890397,importFrom:10,spuId:215715260,ttid:600000@taobao_android_6.1.1,leafCatId:211104","attributesMap":{"wap":"1","ttid":"600000@taobao_android_6.1.1","leafCatId":"211104","tmall_vip_level":"0","spuId":"215715260","importFrom":"10","enableTime":"1477258890397","worth_order_score":"3482.4","worth_score":"63"},"aucNumId":"","auctionPicUrl":"","auctionPrice":"","auctionSku":"","auctionTitle":"","buyCount":0,"carServiceLocation":"","cmsSource":"天猫","displayRatePic":"","displayRateSum":0,"displayUserLink":"","displayUserNick":"2***6","displayUserNumId":"","displayUserRateLink":"","dsr":0.0,"fromMall":true,"fromMemory":0,"gmtCreateTime":1477258890000,"id":289109608488,"pics":"","picsSmall":"","position":"","rateContent":"评价晚了，奶粉味道挺淡的，挺好的，但是有一筒盖子被挤碎了，卖家没做好防碎保护。","rateDate":"2016-10-24 05:41:30","reply":"","sellerId":725677994,"serviceRateContent":"","structuredRateList":[],"tamllSweetLevel":0,"tmallSweetPic":"","tradeEndTime":1477258620000,"tradeId":"","useful":true,"userIdEncryption":"","userInfo":"","userVipLevel":0,"userVipPic":""},{"aliMallSeller":false,"anony":true,"appendComment":"","attributes":"worth_score:33,tmall_vip_level:0,wap:1,worth_order_score:3452.4,enableTime:1477254714142,importFrom:10,spuId:215715260,ttid:600000@taobao_android_6.1.1,leafCatId:211104","attributesMap":{"wap":"1","ttid":"600000@taobao_android_6.1.1","leafCatId":"211104","tmall_vip_level":"0","spuId":"215715260","importFrom":"10","enableTime":"1477254714142","worth_order_score":"3452.4","worth_score":"33"},"aucNumId":"","auctionPicUrl":"","auctionPrice":"","auctionSku":"","auctionTitle":"","buyCount":0,"carServiceLocation":"","cmsSource":"天猫","displayRatePic":"","displayRateSum":0,"displayUserLink":"","displayUserNick":"利***咪","displayUserNumId":"","displayUserRateLink":"","dsr":0.0,"fromMall":true,"fromMemory":0,"gmtCreateTime":1477254714000,"id":289164667346,"pics":"","picsSmall":"","position":"","rateContent":"我宝宝喝剩下的我尝了一口，嘴里有股奶粉盒纸的味道，","rateDate":"2016-10-24 04:31:54","reply":"","sellerId":725677994,"serviceRateContent":"","structuredRateList":[],"tamllSweetLevel":0,"tmallSweetPic":"","tradeEndTime":1476438816000,"tradeId":"","useful":true,"userIdEncryption":"","userInfo":"","userVipLevel":0,"userVipPic":""},{"aliMallSeller":false,"anony":true,"appendComment":"","attributes":"worth_score:30,tmall_vip_level:4,wap:1,worth_order_score:3449.4,enableTime:1477238833673,importFrom:10,spuId:215715260,ttid:600129@taobao_android_6.1.0,leafCatId:211104","attributesMap":{"wap":"1","ttid":"600129@taobao_android_6.1.0","leafCatId":"211104","tmall_vip_level":"4","spuId":"215715260","importFrom":"10","enableTime":"1477238833673","worth_order_score":"3449.4","worth_score":"30"},"aucNumId":"","auctionPicUrl":"","auctionPrice":"","auctionSku":"","auctionTitle":"","buyCount":0,"carServiceLocation":"","cmsSource":"天猫","displayRatePic":"","displayRateSum":0,"displayUserLink":"","displayUserNick":"宫***玮","displayUserNumId":"","displayUserRateLink":"","dsr":0.0,"fromMall":true,"fromMemory":0,"gmtCreateTime":1477238834000,"id":289378925150,"pics":"","picsSmall":"","position":"","rateContent":"看起来还不错，还没给宝宝喝","rateDate":"2016-10-24 00:07:14","reply":"","sellerId":725677994,"serviceRateContent":"","structuredRateList":[],"tamllSweetLevel":4,"tmallSweetPic":"tmall-grade-t4-18.png","tradeEndTime":1477123325000,"tradeId":"","useful":true,"userIdEncryption":"","userInfo":"","userVipLevel":0,"userVipPic":""},{"aliMallSeller":false,"anony":true,"appendComment":"","attributes":"worth_score:47,tmall_vip_level:3,wap:1,worth_order_score:3466.4,enableTime:1477235164816,importFrom:10,spuId:215715260,ttid:228200@taobao_android_5.4.8,leafCatId:211104","attributesMap":{"wap":"1","ttid":"228200@taobao_android_5.4.8","leafCatId":"211104","tmall_vip_level":"3","spuId":"215715260","importFrom":"10","enableTime":"1477235164816","worth_order_score":"3466.4","worth_score":"47"},"aucNumId":"","auctionPicUrl":"","auctionPrice":"","auctionSku":"","auctionTitle":"","buyCount":0,"carServiceLocation":"","cmsSource":"天猫","displayRatePic":"","displayRateSum":0,"displayUserLink":"","displayUserNick":"h***o","displayUserNumId":"","displayUserRateLink":"","dsr":0.0,"fromMall":true,"fromMemory":0,"gmtCreateTime":1477235165000,"id":288962092630,"pics":"","picsSmall":"","position":"","rateContent":"这次包装不够好，盒子都压扁了，还好没爆罐","rateDate":"2016-10-23 23:06:05","reply":"","sellerId":725677994,"serviceRateContent":"","structuredRateList":[],"tamllSweetLevel":3,"tmallSweetPic":"tmall-grade-t3-18.png","tradeEndTime":1477235087000,"tradeId":"","useful":true,"userIdEncryption":"","userInfo":"","userVipLevel":0,"userVipPic":""},{"aliMallSeller":false,"anony":true,"appendComment":"","attributes":"worth_score:31,tmall_vip_level:3,wap:1,worth_order_score:3450.4,enableTime:1477230590388,importFrom:10,spuId:215715260,ttid:600000@taobao_android_6.1.1,leafCatId:211104","attributesMap":{"wap":"1","ttid":"600000@taobao_android_6.1.1","leafCatId":"211104","tmall_vip_level":"3","spuId":"215715260","importFrom":"10","enableTime":"1477230590388","worth_order_score":"3450.4","worth_score":"31"},"aucNumId":"","auctionPicUrl":"","auctionPrice":"","auctionSku":"","auctionTitle":"","buyCount":0,"carServiceLocation":"","cmsSource":"天猫","displayRatePic":"","displayRateSum":0,"displayUserLink":"","displayUserNick":"兰***空","displayUserNumId":"","displayUserRateLink":"","dsr":0.0,"fromMall":true,"fromMemory":0,"gmtCreateTime":1477230590000,"id":289185998283,"pics":"","picsSmall":"","position":"","rateContent":"一直都买这个牌子的奶粉挺好的。","rateDate":"2016-10-23 21:49:50","reply":"","sellerId":725677994,"serviceRateContent":"","structuredRateList":[],"tamllSweetLevel":3,"tmallSweetPic":"tmall-grade-t3-18.png","tradeEndTime":1476588603000,"tradeId":"","useful":true,"userIdEncryption":"","userInfo":"","userVipLevel":0,"userVipPic":""},{"aliMallSeller":false,"anony":true,"appendComment":"","attributes":"worth_score:20,tmall_vip_level:2,wap:1,worth_order_score:3439.4,enableTime:1477229060154,importFrom:10,spuId:215715260,ttid:201200@taobao_iphone_6.1.0,leafCatId:211104","attributesMap":{"wap":"1","ttid":"201200@taobao_iphone_6.1.0","leafCatId":"211104","tmall_vip_level":"2","spuId":"215715260","importFrom":"10","enableTime":"1477229060154","worth_order_score":"3439.4","worth_score":"20"},"aucNumId":"","auctionPicUrl":"","auctionPrice":"","auctionSku":"","auctionTitle":"","buyCount":0,"carServiceLocation":"","cmsSource":"天猫","displayRatePic":"","displayRateSum":0,"displayUserLink":"","displayUserNick":"萌***3","displayUserNumId":"","displayUserRateLink":"","dsr":0.0,"fromMall":true,"fromMemory":0,"gmtCreateTime":1477229060000,"id":289034453448,"pics":"","picsSmall":"","position":"","rateContent":"奶粉还没喝，打算一周岁换这个，先买一桶试试。","rateDate":"2016-10-23 21:24:20","reply":"","sellerId":725677994,"serviceRateContent":"","structuredRateList":[],"tamllSweetLevel":2,"tmallSweetPic":"tmall-grade-t2-18.png","tradeEndTime":1477228958000,"tradeId":"","useful":true,"userIdEncryption":"","userInfo":"","userVipLevel":0,"userVipPic":""},{"aliMallSeller":false,"anony":true,"appendComment":"","attributes":"worth_score:15,tmall_vip_level:0,wap:1,worth_order_score:3434.4,enableTime:1477227338064,importFrom:10,spuId:215715260,ttid:600000@taobao_android_6.1.1,leafCatId:211104","attributesMap":{"wap":"1","ttid":"600000@taobao_android_6.1.1","leafCatId":"211104","tmall_vip_level":"0","spuId":"215715260","importFrom":"10","enableTime":"1477227338064","worth_order_score":"3434.4","worth_score":"15"},"aucNumId":"","auctionPicUrl":"","auctionPrice":"","auctionSku":"","auctionTitle":"","buyCount":0,"carServiceLocation":"","cmsSource":"天猫","displayRatePic":"","displayRateSum":0,"displayUserLink":"","displayUserNick":"我***在","displayUserNumId":"","displayUserRateLink":"","dsr":0.0,"fromMall":true,"fromMemory":0,"gmtCreateTime":1477227338000,"id":288997893873,"pics":"","picsSmall":"","position":"","rateContent":"好","rateDate":"2016-10-23 20:55:38","reply":"","sellerId":725677994,"serviceRateContent":"","structuredRateList":[],"tamllSweetLevel":0,"tmallSweetPic":"","tradeEndTime":1477227276000,"tradeId":"","useful":true,"userIdEncryption":"","userInfo":"","userVipLevel":0,"userVipPic":""},{"aliMallSeller":false,"anony":true,"appendComment":"","attributes":"worth_score:36,tmall_vip_level:2,wap:1,worth_order_score:3455.4,enableTime:1477225784335,importFrom:10,spuId:215715260,ttid:600000@taobao_android_6.1.1,leafCatId:211104","attributesMap":{"wap":"1","ttid":"600000@taobao_android_6.1.1","leafCatId":"211104","tmall_vip_level":"2","spuId":"215715260","importFrom":"10","enableTime":"1477225784335","worth_order_score":"3455.4","worth_score":"36"},"aucNumId":"","auctionPicUrl":"","auctionPrice":"","auctionSku":"","auctionTitle":"","buyCount":0,"carServiceLocation":"","cmsSource":"天猫","displayRatePic":"","displayRateSum":0,"displayUserLink":"","displayUserNick":"易***韵","displayUserNumId":"","displayUserRateLink":"","dsr":0.0,"fromMall":true,"fromMemory":0,"gmtCreateTime":1477225784000,"id":289106676805,"pics":"","picsSmall":"","position":"","rateContent":"第二次购买了。还是一样的评价一样的好，但愿吧？的跟第一次的货永远都是一样。","rateDate":"2016-10-23 20:29:44","reply":"","sellerId":725677994,"serviceRateContent":"","structuredRateList":[],"tamllSweetLevel":2,"tmallSweetPic":"tmall-grade-t2-18.png","tradeEndTime":1477225739000,"tradeId":"","useful":true,"userIdEncryption":"","userInfo":"","userVipLevel":0,"userVipPic":""},{"aliMallSeller":false,"anony":true,"appendComment":"","attributes":"worth_score:47,tmall_vip_level:3,wap:1,worth_order_score:3466.4,enableTime:1477224942370,importFrom:10,spuId:215715260,ttid:600000@taobao_android_6.1.1,leafCatId:211104","attributesMap":{"wap":"1","ttid":"600000@taobao_android_6.1.1","leafCatId":"211104","tmall_vip_level":"3","spuId":"215715260","importFrom":"10","enableTime":"1477224942370","worth_order_score":"3466.4","worth_score":"47"},"aucNumId":"","auctionPicUrl":"","auctionPrice":"","auctionSku":"","auctionTitle":"","buyCount":0,"carServiceLocation":"","cmsSource":"天猫","displayRatePic":"","displayRateSum":0,"displayUserLink":"","displayUserNick":"爱***荡","displayUserNumId":"","displayUserRateLink":"","dsr":0.0,"fromMall":true,"fromMemory":0,"gmtCreateTime":1477224942000,"id":289362083256,"pics":"","picsSmall":"","position":"","rateContent":"速度挺快，这次箱子里装了些别人的发货单，不知怎么回事","rateDate":"2016-10-23 20:15:42","reply":"","sellerId":725677994,"serviceRateContent":"","structuredRateList":[],"tamllSweetLevel":3,"tmallSweetPic":"tmall-grade-t3-18.png","tradeEndTime":1477224811000,"tradeId":"","useful":true,"userIdEncryption":"","userInfo":"","userVipLevel":0,"userVipPic":""},{"aliMallSeller":false,"anony":true,"appendComment":"","attributes":"worth_score:19,tmall_vip_level:3,wap:1,worth_order_score:3438.4,enableTime:1477223322477,importFrom:10,spuId:215715260,ttid:201200@taobao_iphone_6.1.0,leafCatId:211104","attributesMap":{"wap":"1","ttid":"201200@taobao_iphone_6.1.0","leafCatId":"211104","tmall_vip_level":"3","spuId":"215715260","importFrom":"10","enableTime":"1477223322477","worth_order_score":"3438.4","worth_score":"19"},"aucNumId":"","auctionPicUrl":"","auctionPrice":"","auctionSku":"","auctionTitle":"","buyCount":0,"carServiceLocation":"","cmsSource":"天猫","displayRatePic":"","displayRateSum":0,"displayUserLink":"","displayUserNick":"盛***贝","displayUserNumId":"","displayUserRateLink":"","dsr":0.0,"fromMall":true,"fromMemory":0,"gmtCreateTime":1477223322000,"id":289294461272,"pics":"","picsSmall":"","position":"","rateContent":"好评！","rateDate":"2016-10-23 19:48:42","reply":"","sellerId":725677994,"serviceRateContent":"","structuredRateList":[],"tamllSweetLevel":3,"tmallSweetPic":"tmall-grade-t3-18.png","tradeEndTime":1477223250000,"tradeId":"","useful":true,"userIdEncryption":"","userInfo":"","userVipLevel":0,"userVipPic":""},{"aliMallSeller":false,"anony":true,"appendComment":"","attributes":"worth_score:8,tmall_vip_level:2,wap:1,worth_order_score:3427.4,enableTime:1477214716387,importFrom:10,spuId:215715260,ttid:600000@taobao_android_6.1.1,leafCatId:211104","attributesMap":{"wap":"1","ttid":"600000@taobao_android_6.1.1","leafCatId":"211104","tmall_vip_level":"2","spuId":"215715260","importFrom":"10","enableTime":"1477214716387","worth_order_score":"3427.4","worth_score":"8"},"aucNumId":"","auctionPicUrl":"","auctionPrice":"","auctionSku":"","auctionTitle":"","buyCount":0,"carServiceLocation":"","cmsSource":"天猫","displayRatePic":"","displayRateSum":0,"displayUserLink":"","displayUserNick":"艾***a","displayUserNumId":"","displayUserRateLink":"","dsr":0.0,"fromMall":true,"fromMemory":0,"gmtCreateTime":1477214716000,"id":289013068344,"pics":"","picsSmall":"","position":"","rateContent":"~~~","rateDate":"2016-10-23 17:25:16","reply":"","sellerId":725677994,"serviceRateContent":"","structuredRateList":[],"tamllSweetLevel":2,"tmallSweetPic":"tmall-grade-t2-18.png","tradeEndTime":1476607707000,"tradeId":"","useful":true,"userIdEncryption":"","userInfo":"","userVipLevel":0,"userVipPic":""},{"aliMallSeller":false,"anony":true,"appendComment":"","attributes":"enableTime:1477214710032,importFrom:10,spuId:215715260,leafCatId:211104,tmall_vip_level:2","attributesMap":{"leafCatId":"211104","tmall_vip_level":"2","spuId":"215715260","importFrom":"10","enableTime":"1477214710032"},"aucNumId":"","auctionPicUrl":"","auctionPrice":"","auctionSku":"","auctionTitle":"","buyCount":0,"carServiceLocation":"","cmsSource":"天猫","displayRatePic":"","displayRateSum":0,"displayUserLink":"","displayUserNick":"y***o","displayUserNumId":"","displayUserRateLink":"","dsr":0.0,"fromMall":true,"fromMemory":0,"gmtCreateTime":1477214710000,"id":289340685174,"pics":"","picsSmall":"","position":"","rateContent":"在诺优能微信验货了，正品。","rateDate":"2016-10-23 17:25:10","reply":"","sellerId":725677994,"serviceRateContent":"","structuredRateList":[],"tamllSweetLevel":2,"tmallSweetPic":"tmall-grade-t2-18.png","tradeEndTime":1477214623000,"tradeId":"","useful":true,"userIdEncryption":"","userInfo":"","userVipLevel":0,"userVipPic":""},{"aliMallSeller":false,"anony":true,"appendComment":"","attributes":"worth_score:8,tmall_vip_level:2,wap:1,worth_order_score:3427.4,enableTime:1477214707345,importFrom:10,spuId:215715260,ttid:600000@taobao_android_6.1.1,leafCatId:211104","attributesMap":{"wap":"1","ttid":"600000@taobao_android_6.1.1","leafCatId":"211104","tmall_vip_level":"2","spuId":"215715260","importFrom":"10","enableTime":"1477214707345","worth_order_score":"3427.4","worth_score":"8"},"aucNumId":"","auctionPicUrl":"","auctionPrice":"","auctionSku":"","auctionTitle":"","buyCount":0,"carServiceLocation":"","cmsSource":"天猫","displayRatePic":"","displayRateSum":0,"displayUserLink":"","displayUserNick":"艾***a","displayUserNumId":"","displayUserRateLink":"","dsr":0.0,"fromMall":true,"fromMemory":0,"gmtCreateTime":1477214707000,"id":288977062194,"pics":"","picsSmall":"","position":"","rateContent":"~~~","rateDate":"2016-10-23 17:25:07","reply":"","sellerId":725677994,"serviceRateContent":"","structuredRateList":[],"tamllSweetLevel":2,"tmallSweetPic":"tmall-grade-t2-18.png","tradeEndTime":1477137115000,"tradeId":"","useful":true,"userIdEncryption":"","userInfo":"","userVipLevel":0,"userVipPic":""},{"aliMallSeller":false,"anony":true,"appendComment":"","attributes":"worth_score:23,tmall_vip_level:2,wap:1,worth_order_score:3442.4,enableTime:1477214691995,importFrom:10,spuId:215715260,ttid:600000@taobao_android_6.1.1,leafCatId:211104","attributesMap":{"wap":"1","ttid":"600000@taobao_android_6.1.1","leafCatId":"211104","tmall_vip_level":"2","spuId":"215715260","importFrom":"10","enableTime":"1477214691995","worth_order_score":"3442.4","worth_score":"23"},"aucNumId":"","auctionPicUrl":"","auctionPrice":"","auctionSku":"","auctionTitle":"","buyCount":0,"carServiceLocation":"","cmsSource":"天猫","displayRatePic":"","displayRateSum":0,"displayUserLink":"","displayUserNick":"艾***a","displayUserNumId":"","displayUserRateLink":"","dsr":0.0,"fromMall":true,"fromMemory":0,"gmtCreateTime":1477214692000,"id":289293606984,"pics":"","picsSmall":"","position":"","rateContent":"宝贝一直吃，物流很快","rateDate":"2016-10-23 17:24:52","reply":"","sellerId":725677994,"serviceRateContent":"","structuredRateList":[],"tamllSweetLevel":2,"tmallSweetPic":"tmall-grade-t2-18.png","tradeEndTime":1477213553000,"tradeId":"","useful":true,"userIdEncryption":"","userInfo":"","userVipLevel":0,"userVipPic":""},{"aliMallSeller":false,"anony":true,"appendComment":"","attributes":"worth_score:31,tmall_vip_level:3,wap:1,worth_order_score:3450.4,enableTime:1477214220008,importFrom:10,spuId:215715260,ttid:600000@taobao_android_6.1.1,leafCatId:211104","attributesMap":{"wap":"1","ttid":"600000@taobao_android_6.1.1","leafCatId":"211104","tmall_vip_level":"3","spuId":"215715260","importFrom":"10","enableTime":"1477214220008","worth_order_score":"3450.4","worth_score":"31"},"aucNumId":"","auctionPicUrl":"","auctionPrice":"","auctionSku":"","auctionTitle":"","buyCount":0,"carServiceLocation":"","cmsSource":"天猫","displayRatePic":"","displayRateSum":0,"displayUserLink":"","displayUserNick":"e***3","displayUserNumId":"","displayUserRateLink":"","dsr":0.0,"fromMall":true,"fromMemory":0,"gmtCreateTime":1477214220000,"id":289253882422,"pics":"","picsSmall":"","position":"","rateContent":"比其他电商贵点，却一直在这买","rateDate":"2016-10-23 17:17:00","reply":"","sellerId":725677994,"serviceRateContent":"","structuredRateList":[],"tamllSweetLevel":3,"tmallSweetPic":"tmall-grade-t3-18.png","tradeEndTime":1476969481000,"tradeId":"","useful":true,"userIdEncryption":"","userInfo":"","userVipLevel":0,"userVipPic":""},{"aliMallSeller":false,"anony":true,"appendComment":"","attributes":"worth_score:36,tmall_vip_level:3,wap:1,worth_order_score:3455.4,enableTime:1477213112115,importFrom:10,spuId:215715260,ttid:201200@taobao_iphone_6.1.0,leafCatId:211104","attributesMap":{"wap":"1","ttid":"201200@taobao_iphone_6.1.0","leafCatId":"211104","tmall_vip_level":"3","spuId":"215715260","importFrom":"10","enableTime":"1477213112115","worth_order_score":"3455.4","worth_score":"36"},"aucNumId":"","auctionPicUrl":"","auctionPrice":"","auctionSku":"","auctionTitle":"","buyCount":0,"carServiceLocation":"","cmsSource":"天猫","displayRatePic":"","displayRateSum":0,"displayUserLink":"","displayUserNick":"y***5","displayUserNumId":"","displayUserRateLink":"","dsr":0.0,"fromMall":true,"fromMemory":0,"gmtCreateTime":1477213112000,"id":289009420361,"pics":"","picsSmall":"","position":"","rateContent":"天猫超市物流很给力，好评","rateDate":"2016-10-23 16:58:32","reply":"","sellerId":725677994,"serviceRateContent":"","structuredRateList":[],"tamllSweetLevel":3,"tmallSweetPic":"tmall-grade-t3-18.png","tradeEndTime":1477212963000,"tradeId":"","useful":true,"userIdEncryption":"","userInfo":"","userVipLevel":0,"userVipPic":""}],"searchinfo":"","tags":""}