{"paginator":{"items":6094,"lastPage":99,"page":1},"rateCount":{"picNum":198,"shop":0,"total":6094,"used":154},"rateDanceInfo":{"currentMilles":1477292007109,"intervalMilles":181376180,"showChooseTopic":false,"storeType":4},"rateList":[{"aliMallSeller":false,"anony":true,"appendComment":"","attributes":"worth_score:20,tmall_vip_level:3,wap:1,worth_order_score:3439.6,enableTime:1477291706186,importFrom:10,spuId:215715260,ttid:600000@taobao_android_6.1.1,leafCatId:211104","attributesMap":{"wap":"1","ttid":"600000@taobao_android_6.1.1","leafCatId":"211104","tmall_vip_level":"3","spuId":"215715260","importFrom":"10","enableTime":"1477291706186","worth_order_score":"3439.6","worth_score":"20"},"aucNumId":"","auctionPicUrl":"","auctionPrice":"","auctionSku":"","auctionTitle":"","buyCount":0,"carServiceLocation":"","cmsSource":"天猫","displayRatePic":"","displayRateSum":0,"displayUserLink":"","displayUserNick":"初***你","displayUserNumId":"","displayUserRateLink":"","dsr":0.0,"fromMall":true,"fromMemory":0,"gmtCreateTime":1477291706000,"id":289027388490,"pics":"","picsSmall":"","position":"","rateContent":"好评！","rateDate":"2016-10-24 14:48:26","reply":"","sellerId":725677994,"serviceRateContent":"","structuredRateList":[],"tamllSweetLevel":3,"tmallSweetPic":"tmall-grade-t3-18.png","tradeEndTime":1477291689000,"tradeId":"","useful":true,"userIdEncryption":"","userInfo":"","userVipLevel":0,"userVipPic":""},{"aliMallSeller":false,"anony":true,"appendComment":"","attributes":"worth_score:13,tmall_vip_level:4,wap:1,worth_order_score:3432.6,enableTime:1477291430459,importFrom:10,spuId:215715260,ttid:600000@taobao_android_5.10.7,leafCatId:211104","attributesMap":{"wap":"1","ttid":"600000@taobao_android_5.10.7","leafCatId":"211104","tmall_vip_level":"4","spuId":"215715260","importFrom":"10","enableTime":"1477291430459","worth_order_score":"3432.6","worth_score":"13"},"aucNumId":"","auctionPicUrl":"","auctionPrice":"","auctionSku":"","auctionTitle":"","buyCount":0,"carServiceLocation":"","cmsSource":"天猫","displayRatePic":"","displayRateSum":0,"displayUserLink":"","displayUserNick":"t***2","displayUserNumId":"","displayUserRateLink":"","dsr":0.0,"fromMall":true,"fromMemory":0,"gmtCreateTime":1477291430000,"id":289192709360,"pics":"","picsSmall":"","position":"","rateContent":"可以。一直喝。","rateDate":"2016-10-24 14:43:50","reply":"","sellerId":725677994,"serviceRateContent":"","structuredRateList":[],"tamllSweetLevel":4,"tmallSweetPic":"tmall-grade-t4-18.png","tradeEndTime":1477133007000,"tradeId":"","useful":true,"userIdEncryption":"","userInfo":"","userVipLevel":0,"userVipPic":""},{"aliMallSeller":false,"anony":true,"appendComment":"","attributes":"worth_score:57,tmall_vip_level:3,wap:1,worth_order_score:3476.6,enableTime:1477290975812,importFrom:10,spuId:215715260,ttid:600000@taobao_android_6.1.1,leafCatId:211104","attributesMap":{"wap":"1","ttid":"600000@taobao_android_6.1.1","leafCatId":"211104","tmall_vip_level":"3","spuId":"215715260","importFrom":"10","enableTime":"1477290975812","worth_order_score":"3476.6","worth_score":"57"},"aucNumId":"","auctionPicUrl":"","auctionPrice":"","auctionSku":"","auctionTitle":"","buyCount":0,"carServiceLocation":"","cmsSource":"天猫","displayRatePic":"","displayRateSum":0,"displayUserLink":"","displayUserNick":"多***西","displayUserNumId":"","displayUserRateLink":"","dsr":0.0,"fromMall":true,"fromMemory":0,"gmtCreateTime":1477290976000,"id":289375434280,"pics":"","picsSmall":"","position":"","rateContent":"用了优惠卷很划算哈，比超市和母婴店购买划算多了，","rateDate":"2016-10-24 14:36:16","reply":"","sellerId":725677994,"serviceRateContent":"","structuredRateList":[],"tamllSweetLevel":3,"tmallSweetPic":"tmall-grade-t3-18.png","tradeEndTime":1477290915000,"tradeId":"","useful":true,"userIdEncryption":"","userInfo":"","userVipLevel":0,"userVipPic":""},{"aliMallSeller":false,"anony":false,"appendComment":"","attributes":"worth_score:20,sr_4067:null,tmall_vip_level:3,itemScore_154:2,worth_order_score:3439.6,itemScore_153:null,enableTime:1477290787626,importFrom:10,spuId:215715260,leafCatId:211104,ishares:0","attributesMap":{"itemScore_154":"2","leafCatId":"211104","tmall_vip_level":"3","spuId":"215715260","sr_4067":"null","importFrom":"10","ishares":"0","enableTime":"1477290787626","itemScore_153":"null","worth_order_score":"3439.6","worth_score":"20"},"aucNumId":"","auctionPicUrl":"","auctionPrice":"","auctionSku":"","auctionTitle":"","buyCount":0,"carServiceLocation":"","cmsSource":"天猫","displayRatePic":"","displayRateSum":0,"displayUserLink":"","displayUserNick":"金***8","displayUserNumId":"","displayUserRateLink":"","dsr":0.0,"fromMall":true,"fromMemory":0,"gmtCreateTime":1477290788000,"id":289198443594,"pics":"","picsSmall":"","position":"","rateContent":"5分好评","rateDate":"2016-10-24 14:33:08","reply":"","sellerId":725677994,"serviceRateContent":"","structuredRateList":[],"tamllSweetLevel":3,"tmallSweetPic":"tmall-grade-t3-18.png","tradeEndTime":1477290691000,"tradeId":"","useful":true,"userIdEncryption":"","userInfo":"","userVipLevel":0,"userVipPic":""},{"aliMallSeller":false,"anony":true,"appendComment":"","attributes":"worth_score:18,tmall_vip_level:4,wap:1,worth_order_score:3437.6,enableTime:1477288176512,importFrom:10,spuId:215715260,ttid:600000@taobao_android_6.1.1,leafCatId:211104","attributesMap":{"wap":"1","ttid":"600000@taobao_android_6.1.1","leafCatId":"211104","tmall_vip_level":"4","spuId":"215715260","importFrom":"10","enableTime":"1477288176512","worth_order_score":"3437.6","worth_score":"18"},"aucNumId":"","auctionPicUrl":"","auctionPrice":"","auctionSku":"","auctionTitle":"","buyCount":0,"carServiceLocation":"","cmsSource":"天猫","displayRatePic":"","displayRateSum":0,"displayUserLink":"","displayUserNick":"j***k","displayUserNumId":"","displayUserRateLink":"","dsr":0.0,"fromMall":true,"fromMemory":0,"gmtCreateTime":1477288177000,"id":289433388899,"pics":"","picsSmall":"","position":"","rateContent":"五月份的，日期比较新，一如既往","rateDate":"2016-10-24 13:49:37","reply":"","sellerId":725677994,"serviceRateContent":"","structuredRateList":[],"tamllSweetLevel":4,"tmallSweetPic":"tmall-grade-t4-18.png","tradeEndTime":1477287875000,"tradeId":"","useful":true,"userIdEncryption":"","userInfo":"","userVipLevel":0,"userVipPic":""},{"aliMallSeller":false,"anony":true,"appendComment":"","attributes":"worth_score:29,tmall_vip_level:0,wap:1,worth_order_score:3448.6,enableTime:1477287154792,importFrom:10,spuId:215715260,ttid:600000@taobao_android_6.1.1,leafCatId:211104","attributesMap":{"wap":"1","ttid":"600000@taobao_android_6.1.1","leafCatId":"211104","tmall_vip_level":"0","spuId":"215715260","importFrom":"10","enableTime":"1477287154792","worth_order_score":"3448.6","worth_score":"29"},"aucNumId":"","auctionPicUrl":"","auctionPrice":"","auctionSku":"","auctionTitle":"","buyCount":0,"carServiceLocation":"","cmsSource":"天猫","displayRatePic":"","displayRateSum":0,"displayUserLink":"","displayUserNick":"羊***1","displayUserNumId":"","displayUserRateLink":"","dsr":0.0,"fromMall":true,"fromMemory":0,"gmtCreateTime":1477287155000,"id":289110661518,"pics":"","picsSmall":"","position":"","rateContent":"收到！还没开始喝。先给5分好评吧!","rateDate":"2016-10-24 13:32:35","reply":"","sellerId":725677994,"serviceRateContent":"","structuredRateList":[],"tamllSweetLevel":0,"tmallSweetPic":"","tradeEndTime":1477281012000,"tradeId":"","useful":true,"userIdEncryption":"","userInfo":"","userVipLevel":0,"userVipPic":""},{"aliMallSeller":false,"anony":true,"appendComment":"","attributes":"worth_score:11,tmall_vip_level:0,wap:1,worth_order_score:3430.6,enableTime:1477286093479,importFrom:10,spuId:215715260,ttid:600000@taobao_android_6.0.1,leafCatId:211104","attributesMap":{"wap":"1","ttid":"600000@taobao_android_6.0.1","leafCatId":"211104","tmall_vip_level":"0","spuId":"215715260","importFrom":"10","enableTime":"1477286093479","worth_order_score":"3430.6","worth_score":"11"},"aucNumId":"","auctionPicUrl":"","auctionPrice":"","auctionSku":"","auctionTitle":"","buyCount":0,"carServiceLocation":"","cmsSource":"天猫","displayRatePic":"","displayRateSum":0,"displayUserLink":"","displayUserNick":"徐***4","displayUserNumId":"","displayUserRateLink":"","dsr":0.0,"fromMall":true,"fromMemory":0,"gmtCreateTime":1477286093000,"id":289338800839,"pics":"","picsSmall":"","position":"","rateContent":"还没有打开，打开了再来评价。","rateDate":"2016-10-24 13:14:53","reply":"","sellerId":725677994,"serviceRateContent":"","structuredRateList":[],"tamllSweetLevel":0,"tmallSweetPic":"","tradeEndTime":1477285868000,"tradeId":"","useful":true,"userIdEncryption":"","userInfo":"","userVipLevel":0,"userVipPic":""},{"aliMallSeller":false,"anony":true,"appendComment":"","attributes":"worth_score:48,tmall_vip_level:0,wap:1,worth_order_score:3467.6,enableTime:1477285414908,importFrom:10,spuId:215715260,ttid:201200@taobao_iphone_5.7.0,leafCatId:211104","attributesMap":{"wap":"1","ttid":"201200@taobao_iphone_5.7.0","leafCatId":"211104","tmall_vip_level":"0","spuId":"215715260","importFrom":"10","enableTime":"1477285414908","worth_order_score":"3467.6","worth_score":"48"},"aucNumId":"","auctionPicUrl":"","auctionPrice":"","auctionSku":"","auctionTitle":"","buyCount":0,"carServiceLocation":"","cmsSource":"天猫","displayRatePic":"","displayRateSum":0,"displayUserLink":"","displayUserNick":"爱***芳","displayUserNumId":"","displayUserRateLink":"","dsr":0.0,"fromMall":true,"fromMemory":0,"gmtCreateTime":1477285415000,"id":289427494429,"pics":"","picsSmall":"","position":"","rateContent":"这个奶粉好好喝啊！宝宝很喜欢喝","rateDate":"2016-10-24 13:03:35","reply":"","sellerId":725677994,"serviceRateContent":"","structuredRateList":[],"tamllSweetLevel":0,"tmallSweetPic":"","tradeEndTime":1477285353000,"tradeId":"","useful":true,"userIdEncryption":"","userInfo":"","userVipLevel":0,"userVipPic":""},{"aliMallSeller":false,"anony":true,"appendComment":"","attributes":"worth_score:16,tmall_vip_level:4,wap:1,worth_order_score:3435.6,enableTime:1477285357256,importFrom:10,spuId:215715260,ttid:201200@taobao_iphone_5.10.3,leafCatId:211104","attributesMap":{"wap":"1","ttid":"201200@taobao_iphone_5.10.3","leafCatId":"211104","tmall_vip_level":"4","spuId":"215715260","importFrom":"10","enableTime":"1477285357256","worth_order_score":"3435.6","worth_score":"16"},"aucNumId":"","auctionPicUrl":"","auctionPrice":"","auctionSku":"","auctionTitle":"","buyCount":0,"carServiceLocation":"","cmsSource":"天猫","displayRatePic":"","displayRateSum":0,"displayUserLink":"","displayUserNick":"王***5","displayUserNumId":"","displayUserRateLink":"","dsr":0.0,"fromMall":true,"fromMemory":0,"gmtCreateTime":1477285357000,"id":289311936946,"pics":"","picsSmall":"","position":"","rateContent":"这次的包装太差劲了吧。","rateDate":"2016-10-24 13:02:37","reply":"","sellerId":725677994,"serviceRateContent":"","structuredRateList":[],"tamllSweetLevel":4,"tmallSweetPic":"tmall-grade-t4-18.png","tradeEndTime":1477285291000,"tradeId":"","useful":true,"userIdEncryption":"","userInfo":"","userVipLevel":0,"userVipPic":""},{"aliMallSeller":false,"anony":true,"appendComment":"","attributes":"worth_score:68,tmall_vip_level:4,itemScore_154:null,worth_order_score:3487.6,enableTime:1477284367021,importFrom:10,spuId:215715260,leafCatId:211104","attributesMap":{"itemScore_154":"null","leafCatId":"211104","tmall_vip_level":"4","spuId":"215715260","importFrom":"10","enableTime":"1477284367021","worth_order_score":"3487.6","worth_score":"68"},"aucNumId":"","auctionPicUrl":"","auctionPrice":"","auctionSku":"","auctionTitle":"","buyCount":0,"carServiceLocation":"","cmsSource":"天猫","displayRatePic":"","displayRateSum":0,"displayUserLink":"","displayUserNick":"l***3","displayUserNumId":"","displayUserRateLink":"","dsr":0.0,"fromMall":true,"fromMemory":0,"gmtCreateTime":1477284367000,"id":289057596596,"pics":"","picsSmall":"","position":"","rateContent":"宝贝质量不错，做工精细，很满意，非常不错","rateDate":"2016-10-24 12:46:07","reply":"","sellerId":725677994,"serviceRateContent":"","structuredRateList":[],"tamllSweetLevel":4,"tmallSweetPic":"tmall-grade-t4-18.png","tradeEndTime":1477284277000,"tradeId":"","useful":true,"userIdEncryption":"","userInfo":"","userVipLevel":0,"userVipPic":""},{"aliMallSeller":false,"anony":true,"appendComment":"","attributes":"worth_score:14,tmall_vip_level:3,wap:1,worth_order_score:3433.6,enableTime:1477283198295,importFrom:10,spuId:215715260,ttid:600000@taobao_android_6.1.1,leafCatId:211104","attributesMap":{"wap":"1","ttid":"600000@taobao_android_6.1.1","leafCatId":"211104","tmall_vip_level":"3","spuId":"215715260","importFrom":"10","enableTime":"1477283198295","worth_order_score":"3433.6","worth_score":"14"},"aucNumId":"","auctionPicUrl":"","auctionPrice":"","auctionSku":"","auctionTitle":"","buyCount":0,"carServiceLocation":"","cmsSource":"天猫","displayRatePic":"","displayRateSum":0,"displayUserLink":"","displayUserNick":"突***h","displayUserNumId":"","displayUserRateLink":"","dsr":0.0,"fromMall":true,"fromMemory":0,"gmtCreateTime":1477283198000,"id":289358755863,"pics":"","picsSmall":"","position":"","rateContent":"还没用，看包装跟以前一样","rateDate":"2016-10-24 12:26:38","reply":"","sellerId":725677994,"serviceRateContent":"","structuredRateList":[],"tamllSweetLevel":3,"tmallSweetPic":"tmall-grade-t3-18.png","tradeEndTime":1477283121000,"tradeId":"","useful":true,"userIdEncryption":"","userInfo":"","userVipLevel":0,"userVipPic":""},{"aliMallSeller":false,"anony":true,"appendComment":"","attributes":"worth_score:14,tmall_vip_level:3,wap:1,worth_order_score:3433.6,enableTime:1477281139197,importFrom:10,spuId:215715260,ttid:201200@taobao_iphone_6.1.0,leafCatId:211104","attributesMap":{"wap":"1","ttid":"201200@taobao_iphone_6.1.0","leafCatId":"211104","tmall_vip_level":"3","spuId":"215715260","importFrom":"10","enableTime":"1477281139197","worth_order_score":"3433.6","worth_score":"14"},"aucNumId":"","auctionPicUrl":"","auctionPrice":"","auctionSku":"","auctionTitle":"","buyCount":0,"carServiceLocation":"","cmsSource":"天猫","displayRatePic":"","displayRateSum":0,"displayUserLink":"","displayUserNick":"黑***9","displayUserNumId":"","displayUserRateLink":"","dsr":0.0,"fromMall":true,"fromMemory":0,"gmtCreateTime":1477281139000,"id":289232123084,"pics":"","picsSmall":"","position":"","rateContent":"老主顾了，天猫超市很给力","rateDate":"2016-10-24 11:52:19","reply":"","sellerId":725677994,"serviceRateContent":"","structuredRateList":[],"tamllSweetLevel":3,"tmallSweetPic":"tmall-grade-t3-18.png","tradeEndTime":1477281013000,"tradeId":"","useful":true,"userIdEncryption":"","userInfo":"","userVipLevel":0,"userVipPic":""},{"aliMallSeller":false,"anony":true,"appendComment":"","attributes":"worth_score:64,sr_4064:null,sr_4067:null,tmall_vip_level:3,worth_order_score:3483.6,splittedTextLabel:splittedText_4193,itemScore_153:null,enableTime:1477279130745,importFrom:10,spuId:215715260,leafCatId:211104","attributesMap":{"leafCatId":"211104","tmall_vip_level":"3","spuId":"215715260","splittedTextLabel":"splittedText_4193","sr_4067":"null","importFrom":"10","enableTime":"1477279130745","itemScore_153":"null","worth_order_score":"3483.6","sr_4064":"null","worth_score":"64"},"aucNumId":"","auctionPicUrl":"","auctionPrice":"","auctionSku":"","auctionTitle":"","buyCount":0,"carServiceLocation":"","cmsSource":"天猫","displayRatePic":"","displayRateSum":0,"displayUserLink":"","displayUserNick":"t***1","displayUserNumId":"","displayUserRateLink":"","dsr":0.0,"fromMall":true,"fromMemory":0,"gmtCreateTime":1477279131000,"id":289363286944,"pics":"","picsSmall":"","position":"","rateContent":"奶香味：非常划算，上次买过翻牌后赶紧又买了些要用的东西，还是优惠很多呢，东西也不错，还会光顾的，真是方便不少，东西都日期新鲜.。","rateDate":"2016-10-24 11:18:51","reply":"","sellerId":725677994,"serviceRateContent":"","structuredRateList":[],"tamllSweetLevel":3,"tmallSweetPic":"tmall-grade-t3-18.png","tradeEndTime":1477053346000,"tradeId":"","useful":true,"userIdEncryption":"","userInfo":"","userVipLevel":0,"userVipPic":""},{"aliMallSeller":false,"anony":true,"appendComment":"","attributes":"worth_score:19,tmall_vip_level:3,wap:1,worth_order_score:3438.6,enableTime:1477278236987,importFrom:10,spuId:215715260,ttid:600000@taobao_android_6.1.1,leafCatId:211104","attributesMap":{"wap":"1","ttid":"600000@taobao_android_6.1.1","leafCatId":"211104","tmall_vip_level":"3","spuId":"215715260","importFrom":"10","enableTime":"1477278236987","worth_order_score":"3438.6","worth_score":"19"},"aucNumId":"","auctionPicUrl":"","auctionPrice":"","auctionSku":"","auctionTitle":"","buyCount":0,"carServiceLocation":"","cmsSource":"天猫","displayRatePic":"","displayRateSum":0,"displayUserLink":"","displayUserNick":"g***t","displayUserNumId":"","displayUserRateLink":"","dsr":0.0,"fromMall":true,"fromMemory":0,"gmtCreateTime":1477278237000,"id":289247559510,"pics":"","picsSmall":"","position":"","rateContent":"实惠","rateDate":"2016-10-24 11:03:57","reply":"","sellerId":725677994,"serviceRateContent":"","structuredRateList":[],"tamllSweetLevel":3,"tmallSweetPic":"tmall-grade-t3-18.png","tradeEndTime":1476711734000,"tradeId":"","useful":true,"userIdEncryption":"","userInfo":"","userVipLevel":0,"userVipPic":""},{"aliMallSeller":false,"anony":true,"appendComment":"","attributes":"worth_score:35,tmall_vip_level:2,wap:1,worth_order_score:3454.6,enableTime:1477277593166,importFrom:10,spuId:215715260,leafCatId:211104","attributesMap":{"wap":"1","leafCatId":"211104","tmall_vip_level":"2","spuId":"215715260","importFrom":"10","enableTime":"1477277593166","worth_order_score":"3454.6","worth_score":"35"},"aucNumId":"","auctionPicUrl":"","auctionPrice":"","auctionSku":"","auctionTitle":"","buyCount":0,"carServiceLocation":"","cmsSource":"天猫","displayRatePic":"","displayRateSum":0,"displayUserLink":"","displayUserNick":"t***r","displayUserNumId":"","displayUserRateLink":"","dsr":0.0,"fromMall":true,"fromMemory":0,"gmtCreateTime":1477277593000,"id":289109138510,"pics":"","picsSmall":"","position":"","rateContent":"闺女挺好喝！好评！","rateDate":"2016-10-24 10:53:13","reply":"","sellerId":725677994,"serviceRateContent":"","structuredRateList":[],"tamllSweetLevel":2,"tmallSweetPic":"tmall-grade-t2-18.png","tradeEndTime":1477277497000,"tradeId":"","useful":true,"userIdEncryption":"","userInfo":"","userVipLevel":0,"userVipPic":""},{"aliMallSeller":false,"anony":true,"appendComment":"","attributes":"worth_score:16,tmall_vip_level:0,wap:1,worth_order_score:3435.6,enableTime:1477276296009,importFrom:10,spuId:215715260,ttid:600000@taobao_android_6.1.1,leafCatId:211104","attributesMap":{"wap":"1","ttid":"600000@taobao_android_6.1.1","leafCatId":"211104","tmall_vip_level":"0","spuId":"215715260","importFrom":"10","enableTime":"1477276296009","worth_order_score":"3435.6","worth_score":"16"},"aucNumId":"","auctionPicUrl":"","auctionPrice":"","auctionSku":"","auctionTitle":"","buyCount":0,"carServiceLocation":"","cmsSource":"天猫","displayRatePic":"","displayRateSum":0,"displayUserLink":"","displayUserNick":"t***r","displayUserNumId":"","displayUserRateLink":"","dsr":0.0,"fromMall":true,"fromMemory":0,"gmtCreateTime":1477276296000,"id":289243169298,"pics":"","picsSmall":"","position":"","rateContent":"好","rateDate":"2016-10-24 10:31:36","reply":"","sellerId":725677994,"serviceRateContent":"","structuredRateList":[],"tamllSweetLevel":0,"tmallSweetPic":"","tradeEndTime":1477276273000,"tradeId":"","useful":true,"userIdEncryption":"","userInfo":"","userVipLevel":0,"userVipPic":""},{"aliMallSeller":false,"anony":true,"appendComment":"","attributes":"worth_score:24,tmall_vip_level:3,wap:1,worth_order_score:3443.6,enableTime:1477276293539,importFrom:10,spuId:215715260,ttid:201200@taobao_iphone_6.1.0,leafCatId:211104","attributesMap":{"wap":"1","ttid":"201200@taobao_iphone_6.1.0","leafCatId":"211104","tmall_vip_level":"3","spuId":"215715260","importFrom":"10","enableTime":"1477276293539","worth_order_score":"3443.6","worth_score":"24"},"aucNumId":"","auctionPicUrl":"","auctionPrice":"","auctionSku":"","auctionTitle":"","buyCount":0,"carServiceLocation":"","cmsSource":"天猫","displayRatePic":"","displayRateSum":0,"displayUserLink":"","displayUserNick":"酷***0","displayUserNumId":"","displayUserRateLink":"","dsr":0.0,"fromMall":true,"fromMemory":0,"gmtCreateTime":1477276294000,"id":289404838782,"pics":"","picsSmall":"","position":"","rateContent":"宝宝很爱喝！！","rateDate":"2016-10-24 10:31:34","reply":"","sellerId":725677994,"serviceRateContent":"","structuredRateList":[],"tamllSweetLevel":3,"tmallSweetPic":"tmall-grade-t3-18.png","tradeEndTime":1477276143000,"tradeId":"","useful":true,"userIdEncryption":"","userInfo":"","userVipLevel":0,"userVipPic":""},{"aliMallSeller":false,"anony":true,"appendComment":"","attributes":"worth_score:37,tmall_vip_level:4,wap:1,worth_order_score:3456.6,enableTime:1477275844449,importFrom:10,spuId:215715260,ttid:201200@taobao_iphone_6.1.0,leafCatId:211104","attributesMap":{"wap":"1","ttid":"201200@taobao_iphone_6.1.0","leafCatId":"211104","tmall_vip_level":"4","spuId":"215715260","importFrom":"10","enableTime":"1477275844449","worth_order_score":"3456.6","worth_score":"37"},"aucNumId":"","auctionPicUrl":"","auctionPrice":"","auctionSku":"","auctionTitle":"","buyCount":0,"carServiceLocation":"","cmsSource":"天猫","displayRatePic":"","displayRateSum":0,"displayUserLink":"","displayUserNick":"q***1","displayUserNumId":"","displayUserRateLink":"","dsr":0.0,"fromMall":true,"fromMemory":0,"gmtCreateTime":1477275844000,"id":289086226316,"pics":"","picsSmall":"","position":"","rateContent":"奶粉送过来罐子也有点变形，都没有保护？没暴罐算我运气好","rateDate":"2016-10-24 10:24:04","reply":"","sellerId":725677994,"serviceRateContent":"","structuredRateList":[],"tamllSweetLevel":4,"tmallSweetPic":"tmall-grade-t4-18.png","tradeEndTime":1477275693000,"tradeId":"","useful":true,"userIdEncryption":"","userInfo":"","userVipLevel":0,"userVipPic":""},{"aliMallSeller":false,"anony":false,"appendComment":"","attributes":"worth_score:12,tmall_vip_level:2,wap:1,worth_order_score:3431.6,enableTime:1477275243727,importFrom:10,spuId:215715260,ttid:600000@taobao_android_5.9.8,leafCatId:211104","attributesMap":{"wap":"1","ttid":"600000@taobao_android_5.9.8","leafCatId":"211104","tmall_vip_level":"2","spuId":"215715260","importFrom":"10","enableTime":"1477275243727","worth_order_score":"3431.6","worth_score":"12"},"aucNumId":"","auctionPicUrl":"","auctionPrice":"","auctionSku":"","auctionTitle":"","buyCount":0,"carServiceLocation":"","cmsSource":"天猫","displayRatePic":"","displayRateSum":0,"displayUserLink":"","displayUserNick":"1***c","displayUserNumId":"","displayUserRateLink":"","dsr":0.0,"fromMall":true,"fromMemory":0,"gmtCreateTime":1477275244000,"id":289240935503,"pics":"","picsSmall":"","position":"","rateContent":"和孕婴店买的一样","rateDate":"2016-10-24 10:14:04","reply":"","sellerId":725677994,"serviceRateContent":"","structuredRateList":[],"tamllSweetLevel":2,"tmallSweetPic":"tmall-grade-t2-18.png","tradeEndTime":1477275221000,"tradeId":"","useful":true,"userIdEncryption":"","userInfo":"","userVipLevel":0,"userVipPic":""},{"aliMallSeller":false,"anony":true,"appendComment":"","attributes":"worth_score:28,tmall_vip_level:3,wap:1,worth_order_score:3447.6,enableTime:1477274325712,importFrom:10,spuId:215715260,ttid:600000@taobao_android_6.1.1,leafCatId:211104","attributesMap":{"wap":"1","ttid":"600000@taobao_android_6.1.1","leafCatId":"211104","tmall_vip_level":"3","spuId":"215715260","importFrom":"10","enableTime":"1477274325712","worth_order_score":"3447.6","worth_score":"28"},"aucNumId":"","auctionPicUrl":"","auctionPrice":"","auctionSku":"","auctionTitle":"","buyCount":0,"carServiceLocation":"","cmsSource":"天猫","displayRatePic":"","displayRateSum":0,"displayUserLink":"","displayUserNick":"悠***丫","displayUserNumId":"","displayUserRateLink":"","dsr":0.0,"fromMall":true,"fromMemory":0,"gmtCreateTime":1477274326000,"id":289034969082,"pics":"","picsSmall":"","position":"","rateContent":"挺方便的，应该不错?","rateDate":"2016-10-24 09:58:46","reply":"","sellerId":725677994,"serviceRateContent":"","structuredRateList":[],"tamllSweetLevel":3,"tmallSweetPic":"tmall-grade-t3-18.png","tradeEndTime":1476208023000,"tradeId":"","useful":true,"userIdEncryption":"","userInfo":"","userVipLevel":0,"userVipPic":""}],"searchinfo":"","tags":""}