{"paginator":{"items":295,"lastPage":15,"page":1},"rateCount":{"picNum":65,"shop":0,"total":295,"used":14},"rateDanceInfo":{"currentMilles":1494989762608,"intervalMilles":32392655160,"showChooseTopic":false,"storeType":4},"rateList":[{"aliMallSeller":false,"anony":true,"appendComment":"","attributes":"","attributesMap":"","aucNumId":"","auctionPicUrl":"","auctionPrice":"","auctionSku":"颜色分类:银色;套餐类型:官方标配","auctionTitle":"","buyCount":0,"carServiceLocation":"","cmsSource":"天猫","displayRatePic":"","displayRateSum":0,"displayUserLink":"","displayUserNick":"t***6","displayUserNumId":"","displayUserRateLink":"","dsr":0.0,"fromMall":true,"fromMemory":0,"gmtCreateTime":1494857523000,"id":310776957645,"pics":["//img.alicdn.com/bao/uploaded/i3/1659906040650165789/TB2qcabnetTMeFjSZFOXXaTiVXa_!!0-rate.jpg","//img.alicdn.com/bao/uploaded/i3/1659906040896382387/TB2uYwfprtlpuFjSspoXXbcDpXa_!!0-rate.jpg"],"picsSmall":"","position":"920-12-32,45;420-11-72,76;1530-11-195,204;1930-12-23,31;1230-12-154,166;520-12-136,153;1930-11-20,22;420-11-188,194;1330-13-92,96;920-11-77,88;10420-12-5,14;1830-12-117,123;920-12-15,19;1830-12-105,116;1830-12-167,187;420-11-0,4;","rateContent":"快递很快，就是发货速度有点慢，本本很小，很薄，厚度大概一厘米吧，估摸了一下长25宽20左右，说说优点：本本漂亮颜值没得说，特意买了一个鼠标搭配，开机很快，带着做各种活动也很方便。缺点：容易发热，小米为发烧而生～玩了一下游戏就烫得不行，不适合游戏党，幸好我平时也是偶尔玩玩，这配置不适合玩游戏毕竟价格摆在那里，续航没有官方说得那么厉害，顶了天就能撑5个小时还是不玩游戏的前提下，充电速度还行。总得说性价比还行吧，毕竟小米第一次做笔记本已经不错了。支持一下。","rateDate":"2017-05-15 22:12:03","reply":"","sellerId":1714128138,"serviceRateContent":"","structuredRateList":[],"tamllSweetLevel":2,"tmallSweetPic":"tmall-grade-t2-18.png","tradeEndTime":1494233999000,"tradeId":"","useful":true,"userIdEncryption":"","userInfo":"","userVipLevel":0,"userVipPic":""},{"aliMallSeller":false,"anony":true,"appendComment":"","attributes":"","attributesMap":"","aucNumId":"","auctionPicUrl":"","auctionPrice":"","auctionSku":"颜色分类:银色;套餐类型:官方标配","auctionTitle":"","buyCount":0,"carServiceLocation":"","cmsSource":"天猫","displayRatePic":"","displayRateSum":0,"displayUserLink":"","displayUserNick":"陈***c","displayUserNumId":"","displayUserRateLink":"","dsr":0.0,"fromMall":true,"fromMemory":0,"gmtCreateTime":1493273410000,"id":308551653679,"pics":["//img.alicdn.com/bao/uploaded/i3/1673206026467425690/TB2_lTDngJlpuFjSspjXXcT.pXa_!!0-rate.jpg"],"picsSmall":"","position":"920-11-76,96;920-12-159,166;1830-13-42,51;920-11-149,158;920-11-52,75;420-11-128,139;","rateContent":"?一直纠结买256还是128 。后来还是买了128的，本人就用来?写文档工作什么的，游戏和音乐都没有用。办公室软件office去了淘宝买安装还挺方便的，他本机那个小米商城的软件本人觉得一般好用，下载个淘宝客户端不知道为什么会闪退。发货速度很慢这点要说一下。机子会热但是散热也很快~我买了风扇什么的。总体还是觉得挺好的。可能我要求不高 哈哈","rateDate":"2017-04-27 14:10:10","reply":"客官，笔记本使用软件闪退建议您可以重新下载尝试或是卸载笔记本上第三方优化类的软件，查看是否有不兼容导致的~我们以后会多注意发货这方面的问题，会加强仓库的工作效率，提升发货速度和服务体验，争取早日将宝贝送到您的手中，感谢您对小米的支持~","sellerId":1714128138,"serviceRateContent":"","structuredRateList":[],"tamllSweetLevel":4,"tmallSweetPic":"tmall-grade-t4-18.png","tradeEndTime":1493269144000,"tradeId":"","useful":true,"userIdEncryption":"","userInfo":"","userVipLevel":0,"userVipPic":""},{"aliMallSeller":false,"anony":true,"appendComment":"","attributes":"","attributesMap":"","aucNumId":"","auctionPicUrl":"","auctionPrice":"","auctionSku":"颜色分类:银色;套餐类型:套餐四","auctionTitle":"","buyCount":0,"carServiceLocation":"","cmsSource":"天猫","displayRatePic":"","displayRateSum":0,"displayUserLink":"","displayUserNick":"四***下","displayUserNumId":"","displayUserRateLink":"","dsr":0.0,"fromMall":true,"fromMemory":0,"gmtCreateTime":1493648393000,"id":308946652635,"pics":["//img.alicdn.com/bao/uploaded/i4/1841606029506024751/TB2WkgUqhtmpuFjSZFqXXbHFpXa_!!0-rate.jpg"],"picsSmall":"","position":"920-11-0,14;1730-11-20,24;920-11-34,42;1130-11-15,19;","rateContent":"我感觉小米的这款笔记本挺好的。外观漂亮，系统流畅。使用2天才来评价，个人感觉值得购买。","rateDate":"2017-05-01 22:19:53","reply":"","sellerId":1714128138,"serviceRateContent":"","structuredRateList":[],"tamllSweetLevel":3,"tmallSweetPic":"tmall-grade-t3-18.png","tradeEndTime":1493647641000,"tradeId":"","useful":true,"userIdEncryption":"","userInfo":"","userVipLevel":0,"userVipPic":""},{"aliMallSeller":false,"anony":true,"appendComment":"","attributes":"","attributesMap":"","aucNumId":"","auctionPicUrl":"","auctionPrice":"","auctionSku":"颜色分类:金色;套餐类型:官方标配","auctionTitle":"","buyCount":0,"carServiceLocation":"","cmsSource":"天猫","displayRatePic":"","displayRateSum":0,"displayUserLink":"","displayUserNick":"w***s","displayUserNumId":"","displayUserRateLink":"","dsr":0.0,"fromMall":true,"fromMemory":0,"gmtCreateTime":1492841755000,"id":308055144905,"pics":["//img.alicdn.com/bao/uploaded/i3/1433506022873637788/TB2Xbg6o9FmpuFjSZFrXXayOXXa_!!0-rate.jpg","//img.alicdn.com/bao/uploaded/i2/1433506022873701554/TB2kN3goYBnpuFjSZFGXXX51pXa_!!0-rate.jpg","//img.alicdn.com/bao/uploaded/i3/1433506022900231274/TB2EO0xmR0kpuFjy1zdXXXuUVXa_!!0-rate.jpg","//img.alicdn.com/bao/uploaded/i1/1433506022916185781/TB2azNtmStkpuFjy0FhXXXQzFXa_!!0-rate.jpg","//img.alicdn.com/bao/uploaded/i2/1433506022923512145/TB2Gn3Wo0RopuFjSZFtXXcanpXa_!!0-rate.jpg"],"picsSmall":"","position":"920-11-33,37;920-11-49,55;420-12-79,87;1130-12-22,28;920-11-67,78;10120-11-122,133;920-11-13,21;420-11-88,91;420-11-39,48;10120-11-92,98;620-12-167,176;","rateContent":"今天中午收到了。打开来看，小米依然给我惊喜，金属质感外壳，有分量，颜色好看，。插上电源后开机很快。设置很人性化。我是最习惯五笔打字的。开机时发现上手就可以用。谢谢如风达快递员，速度快，服务态度一流，外面下着雨，而我的小米再一次稳稳地，到我手里。谢谢小米客服的热情服务。希望后续如有不懂之处，能及时得到讲解。以后有要更换的家用电子产品，会依然首选小米产品。后续追评。","rateDate":"2017-04-22 14:15:55","reply":"感谢您一直以来对我们的支持，谢谢您一路以来对小米的陪伴，感谢千万米粉对我们的鼓励，&ldquo;因为米粉，所以小米&rdquo;，我们一定不会辜负您的期望，用最好的产品回报您的喜爱。","sellerId":1714128138,"serviceRateContent":"","structuredRateList":[],"tamllSweetLevel":4,"tmallSweetPic":"tmall-grade-t4-18.png","tradeEndTime":1492841255000,"tradeId":"","useful":true,"userIdEncryption":"","userInfo":"","userVipLevel":0,"userVipPic":""},{"aliMallSeller":false,"anony":true,"appendComment":"","attributes":"","attributesMap":"","aucNumId":"","auctionPicUrl":"","auctionPrice":"","auctionSku":"颜色分类:银色;套餐类型:套餐三","auctionTitle":"","buyCount":0,"carServiceLocation":"","cmsSource":"天猫","displayRatePic":"","displayRateSum":0,"displayUserLink":"","displayUserNick":"羊***凡","displayUserNumId":"","displayUserRateLink":"","dsr":0.0,"fromMall":true,"fromMemory":0,"gmtCreateTime":1493983267000,"id":309443759737,"pics":["//img.alicdn.com/bao/uploaded/i4/1931406032506559159/TB2RL81ohdkpuFjy0FbXXaNnpXa_!!0-rate.jpg","//img.alicdn.com/bao/uploaded/i4/1931406032529134376/TB2pweBobXlpuFjy1zbXXb_qpXa_!!0-rate.jpg"],"picsSmall":"","position":"420-12-0,8;920-11-114,124;1130-11-102,113;420-12-9,27;1830-12-132,146;1830-12-125,131;","rateContent":"恩首先说说快递吧。第一次见到有顺丰快递不是客户方面签收，而是把货物在未经允许的情况下就放在收发室的。其次说说电脑吧，因为是学生攒点钱不容易，问了学长等多方面综合考虑之后才决定入的小米。因为自己也不是很懂，可是电脑外观确实很好看，很适合女孩子的超级本，因为不打游戏，日常看看视频聊聊天确实够用了。相信小米。","rateDate":"2017-05-05 19:21:07","reply":"亲，由于各地的物流公司服务质量参差不齐，我们不能完全保证他们的送货服务质量。如因快递公司送货给您造成不便，我们先给您道歉了，我们会加强和物流公司的合作，提升配送速度和服务水平，谢谢亲的理解，感谢您对小米的支持。","sellerId":1714128138,"serviceRateContent":"","structuredRateList":[],"tamllSweetLevel":0,"tmallSweetPic":"","tradeEndTime":1493983035000,"tradeId":"","useful":true,"userIdEncryption":"","userInfo":"","userVipLevel":0,"userVipPic":""},{"aliMallSeller":false,"anony":true,"appendComment":"","attributes":"","attributesMap":"","aucNumId":"","auctionPicUrl":"","auctionPrice":"","auctionSku":"颜色分类:金色;套餐类型:官方标配","auctionTitle":"","buyCount":0,"carServiceLocation":"","cmsSource":"天猫","displayRatePic":"","displayRateSum":0,"displayUserLink":"","displayUserNick":"厦***1","displayUserNumId":"","displayUserRateLink":"","dsr":0.0,"fromMall":true,"fromMemory":0,"gmtCreateTime":1493728351000,"id":309120763813,"pics":["//img.alicdn.com/bao/uploaded/i4/1439406029998514649/TB2j._EqC0mpuFjSZPiXXbssVXa_!!0-rate.jpg","//img.alicdn.com/bao/uploaded/i2/1439406029998658211/TB2oFkjnR0kpuFjy1zdXXXuUVXa_!!0-rate.jpg","//img.alicdn.com/bao/uploaded/i1/1439406030242494653/TB27hDAqrlmpuFjSZFlXXbdQXXa_!!0-rate.jpg"],"picsSmall":"","position":"620-12-0,5;920-11-30,45;920-11-75,84;920-11-6,8;920-11-70,74;","rateContent":"宝贝收到了，喜欢！原先打算在苏宁易购五一优惠买的，没有买到，但是在淘宝小米旗舰店也真是放心，就认这家了，接下来还要装备小米手机，空气净化器，支持国货，做一个小米忠实用户！","rateDate":"2017-05-02 20:32:31","reply":"偶然中相遇，有缘不容易，您话语中的满意，我们定将为您倾心倾力，感谢您对小米官方旗舰店的支持。","sellerId":1714128138,"serviceRateContent":"","structuredRateList":[],"tamllSweetLevel":3,"tmallSweetPic":"tmall-grade-t3-18.png","tradeEndTime":1493728047000,"tradeId":"","useful":true,"userIdEncryption":"","userInfo":"","userVipLevel":0,"userVipPic":""},{"aliMallSeller":false,"anony":true,"appendComment":"","attributes":"","attributesMap":"","aucNumId":"","auctionPicUrl":"","auctionPrice":"","auctionSku":"颜色分类:银色;套餐类型:官方标配","auctionTitle":"","buyCount":0,"carServiceLocation":"","cmsSource":"天猫","displayRatePic":"","displayRateSum":0,"displayUserLink":"","displayUserNick":"祭***楚","displayUserNumId":"","displayUserRateLink":"","dsr":0.0,"fromMall":true,"fromMemory":0,"gmtCreateTime":1491887321000,"id":306740255949,"pics":["//img.alicdn.com/bao/uploaded/i2/1813906014743165963/TB2L39SnstnpuFjSZFKXXalFFXa_!!0-rate.jpg","//img.alicdn.com/bao/uploaded/i4/1813906014767598508/TB28PsMla8lpuFjy0FpXXaGrpXa_!!0-rate.jpg"],"picsSmall":"","position":"920-11-17,26;420-12-61,77;920-11-13,16;920-11-41,52;1730-12-27,40;1130-11-0,12;","rateContent":"小米笔记本电脑外观很漂亮，很轻薄，整体来说还是不错的，对于性能没有太大的要求的话，这款电脑你是值得拥有的。唯一的要求的是，一样小米的出货的速度可以提高一下。","rateDate":"2017-04-11 13:08:41","reply":"您好，让您久等实在抱歉，我们不但会努力提升发货速度，也会加强各部门的协调配合，并且会一直督促公司，让您拥有愉快的购物体验。对给您带来的困扰，再次说一声抱歉，产品使用中有任何疑问请随时联系我们呢。感谢您对小米官方旗舰店的支持！","sellerId":1714128138,"serviceRateContent":"","structuredRateList":[],"tamllSweetLevel":2,"tmallSweetPic":"tmall-grade-t2-18.png","tradeEndTime":1491887049000,"tradeId":"","useful":true,"userIdEncryption":"","userInfo":"","userVipLevel":0,"userVipPic":""},{"aliMallSeller":false,"anony":false,"appendComment":{"commentId":"","commentTime":"2017-04-23 11:21:30","content":"贴膜的效果还可以吧","days":8,"pics":["//img.alicdn.com/bao/uploaded/i4/1684106023391169149/TB20RTFmG8lpuFjy0FpXXaGrpXa_!!0-rate.jpg","//img.alicdn.com/bao/uploaded/i3/1684106023498201882/TB21DbsmR0kpuFjSsppXXcGTXXa_!!0-rate.jpg"],"reply":""},"attributes":"","attributesMap":"","aucNumId":"","auctionPicUrl":"","auctionPrice":"","auctionSku":"颜色分类:银色;套餐类型:官方标配","auctionTitle":"","buyCount":0,"carServiceLocation":"","cmsSource":"天猫","displayRatePic":"","displayRateSum":0,"displayUserLink":"","displayUserNick":"y***8","displayUserNumId":"","displayUserRateLink":"","dsr":0.0,"fromMall":true,"fromMemory":0,"gmtCreateTime":1492317147000,"id":307330242258,"pics":["//img.alicdn.com/bao/uploaded/i4/1684106018401219029/TB2y0FPl80kpuFjSsziXXa.oVXa_!!0-rate.jpg","//img.alicdn.com/bao/uploaded/i3/1684106018444136949/TB2n.xUl3xlpuFjSszgXXcJdpXa_!!0-rate.jpg"],"picsSmall":"","position":"1230-11-33,37;920-11-18,24;920-11-25,32;920-11-5,17;u0001","rateContent":"给五星吧！我的手环解锁电脑感觉不错。操作界面很好，应用商店我喜欢。续航也好。各方面感觉都很有特点。","rateDate":"2017-04-16 12:32:27","reply":"","sellerId":1714128138,"serviceRateContent":"","structuredRateList":[],"tamllSweetLevel":2,"tmallSweetPic":"tmall-grade-t2-18.png","tradeEndTime":1492190606000,"tradeId":"","useful":true,"userIdEncryption":"","userInfo":"","userVipLevel":0,"userVipPic":""},{"aliMallSeller":false,"anony":true,"appendComment":"","attributes":"","attributesMap":"","aucNumId":"","auctionPicUrl":"","auctionPrice":"","auctionSku":"颜色分类:银色;套餐类型:官方标配","auctionTitle":"","buyCount":0,"carServiceLocation":"","cmsSource":"天猫","displayRatePic":"","displayRateSum":0,"displayUserLink":"","displayUserNick":"t***4","displayUserNumId":"","displayUserRateLink":"","dsr":0.0,"fromMall":true,"fromMemory":0,"gmtCreateTime":1493261845000,"id":308580001855,"pics":["//img.alicdn.com/bao/uploaded/i3/1159406026346642169/TB2e_yLngxlpuFjSszgXXcJdpXa_!!0-rate.jpg","//img.alicdn.com/bao/uploaded/i3/1159406026386259879/TB2qTH_pNxmpuFjSZFNXXXrRXXa_!!0-rate.jpg","//img.alicdn.com/bao/uploaded/i4/1159406026496187059/TB2SAi0ngxlpuFjSszbXXcSVpXa_!!0-rate.jpg"],"picsSmall":"","position":"920-11-0,14;1930-11-15,17;920-11-35,40;920-11-18,24;1130-11-25,34;","rateContent":"用了有一个多星期了越来越喜欢，很薄，提起来很方便，而且颜色也比较耐看，电脑很精致","rateDate":"2017-04-27 10:57:25","reply":"感谢您对小米的支持与厚爱，感情的浓淡，是建立在对彼此的信任，建立在对彼此的安全感。您的满意是我们最终追求的目标。期待亲爱的再次光临~","sellerId":1714128138,"serviceRateContent":"","structuredRateList":[],"tamllSweetLevel":2,"tmallSweetPic":"tmall-grade-t2-18.png","tradeEndTime":1492505575000,"tradeId":"","useful":true,"userIdEncryption":"","userInfo":"","userVipLevel":0,"userVipPic":""},{"aliMallSeller":false,"anony":true,"appendComment":"","attributes":"","attributesMap":"","aucNumId":"","auctionPicUrl":"","auctionPrice":"","auctionSku":"颜色分类:银色;套餐类型:官方标配","auctionTitle":"","buyCount":0,"carServiceLocation":"","cmsSource":"天猫","displayRatePic":"","displayRateSum":0,"displayUserLink":"","displayUserNick":"雷***聪","displayUserNumId":"","displayUserRateLink":"","dsr":0.0,"fromMall":true,"fromMemory":0,"gmtCreateTime":1494278639000,"id":309839010792,"pics":"","picsSmall":"","position":"420-11-63,74;2230-12-28,36;920-11-108,117;920-12-0,6;2030-12-23,27;920-11-47,57;2030-11-7,11;920-12-58,62;920-12-90,107;920-12-12,18;920-11-118,122;","rateContent":"客观评价一下，屏幕适中，接口太少了点，把前面，后面屏幕，键盘全都贴上了膜，强迫症犯了，WIN 10系统还没有用习惯，有点复杂，开机速度那绝对是杠杠的！看电视什么的无压力，还有一点，笔记本只能wifi不能直接插网线哦，用了几天还算不错的。支持小米！","rateDate":"2017-05-09 05:23:59","reply":"亲爱的，如果您需要更多的接口或者有线上网的话，可以选购一款外接扩展器哦，感谢您对小米的支持，祝您生活愉快~","sellerId":1714128138,"serviceRateContent":"","structuredRateList":[],"tamllSweetLevel":3,"tmallSweetPic":"tmall-grade-t3-18.png","tradeEndTime":1494278497000,"tradeId":"","useful":true,"userIdEncryption":"","userInfo":"","userVipLevel":0,"userVipPic":""},{"aliMallSeller":false,"anony":true,"appendComment":"","attributes":"","attributesMap":"","aucNumId":"","auctionPicUrl":"","auctionPrice":"","auctionSku":"颜色分类:银色;套餐类型:套餐三","auctionTitle":"","buyCount":0,"carServiceLocation":"","cmsSource":"天猫","displayRatePic":"","displayRateSum":0,"displayUserLink":"","displayUserNick":"施***杨","displayUserNumId":"","displayUserRateLink":"","dsr":0.0,"fromMall":true,"fromMemory":0,"gmtCreateTime":1493388498000,"id":308883514469,"pics":["//img.alicdn.com/bao/uploaded/i4/1426706027651241977/TB27CSlnB0kpuFjSsppXXcGTXXa_!!0-rate.jpg"],"picsSmall":"","position":"10420-13-66,70;920-13-53,58;420-11-71,78;1130-12-0,7;920-12-21,37;","rateContent":"外观在意料之中，品控要加强，enter键，capslock键和tab键不平，一侧向上翘起，不过不影响使用，只是不美观，别的暂时还好 发货不快，不过物流还可以","rateDate":"2017-04-28 22:08:18","reply":"给您带来不好的体验实在是很惭愧的，但请放心一定会改进的。感谢您选购小米产品，咱们店买的产品均享受正规三包服务的~如果遇到使用问题，您可以联系客服童鞋哦，我们将竭诚为您服务！?","sellerId":1714128138,"serviceRateContent":"","structuredRateList":[],"tamllSweetLevel":3,"tmallSweetPic":"tmall-grade-t3-18.png","tradeEndTime":1493388023000,"tradeId":"","useful":true,"userIdEncryption":"","userInfo":"","userVipLevel":0,"userVipPic":""},{"aliMallSeller":false,"anony":true,"appendComment":"","attributes":"","attributesMap":"","aucNumId":"","auctionPicUrl":"","auctionPrice":"","auctionSku":"颜色分类:金色;套餐类型:官方标配","auctionTitle":"","buyCount":0,"carServiceLocation":"","cmsSource":"天猫","displayRatePic":"","displayRateSum":0,"displayUserLink":"","displayUserNick":"陈***9","displayUserNumId":"","displayUserRateLink":"","dsr":0.0,"fromMall":true,"fromMemory":0,"gmtCreateTime":1491958267000,"id":306963800583,"pics":"","picsSmall":"","position":"420-11-90,99;920-12-127,130;920-12-58,69;1330-11-117,122;920-12-105,110;420-11-20,26;920-11-123,126;","rateContent":"首先，也许是因为米粉节，所以发货比较迟。但是顺丰给力！拿到笔记本，觉得金色没想象的好看，而且顶面没有惊艳的logo。只有一个普通的USB口（没有光驱，我感觉是可以做2个USB的）。开关机的速度都很快。没有风扇，长时间使用，局部有温度，但是并不烫，很正常。整体说，还是好评！","rateDate":"2017-04-12 08:51:07","reply":"其实一开始仓库是拒绝的，发货老不好，我想多半是废了，那晚Duang Duang打一顿就好了，仓库就乖乖发货了。感谢您对小米的支持，我们一定加快发货速度，争取让您早日收到心爱的宝贝，祝您生活愉快~","sellerId":1714128138,"serviceRateContent":"","structuredRateList":[],"tamllSweetLevel":3,"tmallSweetPic":"tmall-grade-t3-18.png","tradeEndTime":1491957937000,"tradeId":"","useful":true,"userIdEncryption":"","userInfo":"","userVipLevel":0,"userVipPic":""},{"aliMallSeller":false,"anony":true,"appendComment":"","attributes":"","attributesMap":"","aucNumId":"","auctionPicUrl":"","auctionPrice":"","auctionSku":"颜色分类:银色;套餐类型:套餐三","auctionTitle":"","buyCount":0,"carServiceLocation":"","cmsSource":"天猫","displayRatePic":"","displayRateSum":0,"displayUserLink":"","displayUserNick":"g***n","displayUserNumId":"","displayUserRateLink":"","dsr":0.0,"fromMall":true,"fromMemory":0,"gmtCreateTime":1492992459000,"id":308262040598,"pics":["//img.alicdn.com/bao/uploaded/i3/1740206023997649299/TB26q7fmM0kpuFjSspdXXX4YXXa_!!0-rate.jpg","//img.alicdn.com/bao/uploaded/i4/1740206024033520142/TB2DjAEpodnpuFjSZPhXXbChpXa_!!0-rate.jpg","//img.alicdn.com/bao/uploaded/i1/1740206024154859573/TB22aHVpdBopuFjSZPcXXc9EpXa_!!0-rate.jpg","//img.alicdn.com/bao/uploaded/i3/1740206024236334751/TB2HTgQmMxlpuFjSszbXXcSVpXa_!!0-rate.jpg"],"picsSmall":"","position":"920-13-47,52;420-12-6,13;420-11-0,5;1130-13-34,42;","rateContent":"物流超级快！顺丰速度棒棒的！新机用着怎么都好，怎么看怎么顺眼！只是，有一点点小的刮痕，还挺深，好在不明显，也不影响使用。","rateDate":"2017-04-24 08:07:39","reply":"客官咱家店铺的设备都享受正规三包的，如您的设备有问题，您可以第一时间联系我们在线客服的，我们定竭尽所能为您扫除困扰。感谢您对小米的支持与喜爱，愿我们的产品让您的生活更加美好。","sellerId":1714128138,"serviceRateContent":"","structuredRateList":[],"tamllSweetLevel":0,"tmallSweetPic":"","tradeEndTime":1492992291000,"tradeId":"","useful":true,"userIdEncryption":"","userInfo":"","userVipLevel":0,"userVipPic":""},{"aliMallSeller":false,"anony":true,"appendComment":"","attributes":"","attributesMap":"","aucNumId":"","auctionPicUrl":"","auctionPrice":"","auctionSku":"颜色分类:银色;套餐类型:套餐四","auctionTitle":"","buyCount":0,"carServiceLocation":"","cmsSource":"天猫","displayRatePic":"","displayRateSum":0,"displayUserLink":"","displayUserNick":"高***友","displayUserNumId":"","displayUserRateLink":"","dsr":0.0,"fromMall":true,"fromMemory":0,"gmtCreateTime":1494478298000,"id":310123761694,"pics":["//img.alicdn.com/bao/uploaded/i1/1367006036928597527/TB2TtNPo8NkpuFjy0FaXXbRCVXa_!!0-rate.jpg"],"picsSmall":"","position":"920-11-0,3;1330-13-12,26;920-11-9,11;920-11-4,8;","rateContent":"还不错，挺好用的，方便，就是用几个小时就会发热很厉害，有待改进","rateDate":"2017-05-11 12:51:38","reply":"亲亲，笔记本使用发热是正常情况，您放心使用即可。如有疑问可以联系咱家客服。感谢您对小米的支持！","sellerId":1714128138,"serviceRateContent":"","structuredRateList":[],"tamllSweetLevel":3,"tmallSweetPic":"tmall-grade-t3-18.png","tradeEndTime":1493480096000,"tradeId":"","useful":true,"userIdEncryption":"","userInfo":"","userVipLevel":0,"userVipPic":""},{"aliMallSeller":false,"anony":true,"appendComment":"","attributes":"","attributesMap":"","aucNumId":"","auctionPicUrl":"","auctionPrice":"","auctionSku":"颜色分类:银色;套餐类型:官方标配","auctionTitle":"","buyCount":0,"carServiceLocation":"","cmsSource":"天猫","displayRatePic":"","displayRateSum":0,"displayUserLink":"","displayUserNick":"l***n","displayUserNumId":"","displayUserRateLink":"","dsr":0.0,"fromMall":true,"fromMemory":0,"gmtCreateTime":1492333645000,"id":307426875624,"pics":["//img.alicdn.com/bao/uploaded/i1/1207206018624121752/TB2vnBVl3JkpuFjSszcXXXfsFXa_!!0-rate.jpg"],"picsSmall":"","position":"920-11-17,22;920-11-0,8;420-11-13,16;1730-11-23,27;420-11-9,12;","rateContent":"小米笔记本就是好，反应快，速度快，值得推荐的，性能不错，","rateDate":"2017-04-16 17:07:25","reply":"被人信赖是一笔买不到的财富，感谢亲给予我们这笔珍贵的财富。我们会继续努力，么么哒~","sellerId":1714128138,"serviceRateContent":"","structuredRateList":[],"tamllSweetLevel":4,"tmallSweetPic":"tmall-grade-t4-18.png","tradeEndTime":1492333508000,"tradeId":"","useful":true,"userIdEncryption":"","userInfo":"","userVipLevel":0,"userVipPic":""},{"aliMallSeller":false,"anony":true,"appendComment":"","attributes":"","attributesMap":"","aucNumId":"","auctionPicUrl":"","auctionPrice":"","auctionSku":"颜色分类:银色;套餐类型:官方标配","auctionTitle":"","buyCount":0,"carServiceLocation":"","cmsSource":"天猫","displayRatePic":"","displayRateSum":0,"displayUserLink":"","displayUserNick":"j***i","displayUserNumId":"","displayUserRateLink":"","dsr":0.0,"fromMall":true,"fromMemory":0,"gmtCreateTime":1492391618000,"id":307677440197,"pics":["//img.alicdn.com/bao/uploaded/i4/1560106018962689413/TB21IAAoipnpuFjSZFIXXXh2VXa_!!0-rate.jpg","//img.alicdn.com/bao/uploaded/i2/1560106019019491244/TB2tRM3ohlmpuFjSZPfXXc9iXXa_!!0-rate.jpg","//img.alicdn.com/bao/uploaded/i3/1560106019050506726/TB2zo2clYBkpuFjy1zkXXbSpFXa_!!0-rate.jpg","//img.alicdn.com/bao/uploaded/i3/1560106019080459370/TB2_t6RodBopuFjSZPcXXc9EpXa_!!0-rate.jpg"],"picsSmall":"","position":"920-11-0,5;920-11-25,31;920-11-39,46;920-11-6,24;","rateContent":"收到很惊喜，今天小米能够做出这样的品质让我很欣慰。推荐好友买的，下次还会再来。朋友收到很开心。","rateDate":"2017-04-17 09:13:38","reply":"","sellerId":1714128138,"serviceRateContent":"","structuredRateList":[],"tamllSweetLevel":4,"tmallSweetPic":"tmall-grade-t4-18.png","tradeEndTime":1492391493000,"tradeId":"","useful":true,"userIdEncryption":"","userInfo":"","userVipLevel":0,"userVipPic":""},{"aliMallSeller":false,"anony":true,"appendComment":"","attributes":"","attributesMap":"","aucNumId":"","auctionPicUrl":"","auctionPrice":"","auctionSku":"颜色分类:银色;套餐类型:官方标配","auctionTitle":"","buyCount":0,"carServiceLocation":"","cmsSource":"天猫","displayRatePic":"","displayRateSum":0,"displayUserLink":"","displayUserNick":"u***a","displayUserNumId":"","displayUserRateLink":"","dsr":0.0,"fromMall":true,"fromMemory":0,"gmtCreateTime":1493947272000,"id":309560333639,"pics":"","picsSmall":"","position":"920-11-0,4;920-11-66,69;1530-12-17,23;1930-11-24,33;920-11-5,16;920-11-39,57;","rateContent":"挺不错的，小米的品质一如既往的好，性价比超级高，这款笔记本适合便携，去图书馆，和窝在寝室床上打打代码还是非常实用的㏄(?????)っ赞个呗","rateDate":"2017-05-05 09:21:12","reply":"桃花潭水深千尺，不及亲亲送好评。感谢您一如既往的支持，感谢您和我们一起见证小米成长道路中的辉煌，我们将不断完善，争取做的更好，回报您的厚爱！","sellerId":1714128138,"serviceRateContent":"","structuredRateList":[],"tamllSweetLevel":3,"tmallSweetPic":"tmall-grade-t3-18.png","tradeEndTime":1493553360000,"tradeId":"","useful":true,"userIdEncryption":"","userInfo":"","userVipLevel":0,"userVipPic":""},{"aliMallSeller":false,"anony":true,"appendComment":"","attributes":"","attributesMap":"","aucNumId":"","auctionPicUrl":"","auctionPrice":"","auctionSku":"颜色分类:银色;套餐类型:官方标配","auctionTitle":"","buyCount":0,"carServiceLocation":"","cmsSource":"天猫","displayRatePic":"","displayRateSum":0,"displayUserLink":"","displayUserNick":"s***l","displayUserNumId":"","displayUserRateLink":"","dsr":0.0,"fromMall":true,"fromMemory":0,"gmtCreateTime":1494576205000,"id":310228002446,"pics":"","picsSmall":"","position":"920-11-16,24;920-11-47,55;920-11-25,31;920-12-8,15;","rateContent":"看了一段时间了，其实要求很简单，基本的办公加轻便。用起还是不错，并没有出现什么特别发烫的情况。自己觉得挺好用的。","rateDate":"2017-05-12 16:03:25","reply":"即使您只是我生命拼图的一小块，但是没有您，我的生命便不会完整,因为有您所以我才完整，亲爱的你喜欢是我最大的荣幸，未来的日子，希望我们依然陪伴左右。","sellerId":1714128138,"serviceRateContent":"","structuredRateList":[],"tamllSweetLevel":3,"tmallSweetPic":"tmall-grade-t3-18.png","tradeEndTime":1494392517000,"tradeId":"","useful":true,"userIdEncryption":"","userInfo":"","userVipLevel":0,"userVipPic":""},{"aliMallSeller":false,"anony":true,"appendComment":"","attributes":"","attributesMap":"","aucNumId":"","auctionPicUrl":"","auctionPrice":"","auctionSku":"颜色分类:银色;套餐类型:官方标配","auctionTitle":"","buyCount":0,"carServiceLocation":"","cmsSource":"天猫","displayRatePic":"","displayRateSum":0,"displayUserLink":"","displayUserNick":"r***r","displayUserNumId":"","displayUserRateLink":"","dsr":0.0,"fromMall":true,"fromMemory":0,"gmtCreateTime":1494417872000,"id":310109208600,"pics":"","picsSmall":"","position":"420-12-78,84;920-12-0,9;520-11-37,49;420-12-70,77;420-11-85,94;1730-11-17,36;","rateContent":"第一次开机用了蛮久，我都以为坏了，后来还是耐心等了半小时开机后使用很流畅，总体来说是一款值得买的本。小米出品必属精品！ 这里主要是物流服务，自己在顺丰工作，用的顺丰快递，第二天就到了非常快。","rateDate":"2017-05-10 20:04:32","reply":"如果我们不曾相遇~我会是在哪里~茫茫人海中，感谢您选择了我们的产品~苍狗又白云，身旁有了你~才有今天的小米！愿我们的每个产品都能让您满意！","sellerId":1714128138,"serviceRateContent":"","structuredRateList":[],"tamllSweetLevel":2,"tmallSweetPic":"tmall-grade-t2-18.png","tradeEndTime":1494417521000,"tradeId":"","useful":true,"userIdEncryption":"","userInfo":"","userVipLevel":0,"userVipPic":""},{"aliMallSeller":false,"anony":true,"appendComment":"","attributes":"","attributesMap":"","aucNumId":"","auctionPicUrl":"","auctionPrice":"","auctionSku":"颜色分类:金色;套餐类型:官方标配","auctionTitle":"","buyCount":0,"carServiceLocation":"","cmsSource":"天猫","displayRatePic":"","displayRateSum":0,"displayUserLink":"","displayUserNick":"s***w","displayUserNumId":"","displayUserRateLink":"","dsr":0.0,"fromMall":true,"fromMemory":0,"gmtCreateTime":1492840812000,"id":308252044852,"pics":"","picsSmall":"","position":"1830-12-32,46;10420-12-67,71;920-11-63,66;920-11-57,62;920-11-20,31;","rateContent":"追剧中，哎，米粉节看有有鼠标送就下单了。UsB接口多一个就好了，游戏隐来了还能拿办公本玩几把。推荐给想要的朋友们，赞一个国货 不错哟，就是发货","rateDate":"2017-04-22 14:00:12","reply":"我们相信时间是检验真理的唯一标准，用户实实在在的使用体验才是小米最重视与关注的~快快使用起来吧，期待您的再次来访哦。","sellerId":1714128138,"serviceRateContent":"","structuredRateList":[],"tamllSweetLevel":2,"tmallSweetPic":"tmall-grade-t2-18.png","tradeEndTime":1492588881000,"tradeId":"","useful":true,"userIdEncryption":"","userInfo":"","userVipLevel":0,"userVipPic":""}],"searchinfo":"","tags":""}