{"paginator":{"items":19933,"lastPage":99,"page":1},"rateCount":{"picNum":4592,"shop":0,"total":19933,"used":2558},"rateDanceInfo":{"currentMilles":1494989158301,"intervalMilles":132598352020,"showChooseTopic":false,"storeType":4},"rateList":[{"aliMallSeller":false,"anony":true,"appendComment":{"commentId":"","commentTime":"2017-05-11 12:02:35","content":"不知道怎么回事啊！打电话和视频总是信号不好","days":164,"pics":"","reply":""},"attributes":"","attributesMap":"","aucNumId":"","auctionPicUrl":"","auctionPrice":"","auctionSku":"网络类型:移动4G/联通4G/电信4G;机身颜色:玫瑰金;套餐类型:官方标配;存储容量:64GB","auctionTitle":"","buyCount":0,"carServiceLocation":"","cmsSource":"天猫","displayRatePic":"","displayRateSum":0,"displayUserLink":"","displayUserNick":"a***9","displayUserNumId":"","displayUserRateLink":"","dsr":0.0,"fromMall":true,"fromMemory":0,"gmtCreateTime":1481532247000,"id":310134539461,"pics":"","picsSmall":"","position":"u0001","rateContent":"<b></b>此<b></b>用<b></b>户<b></b>没<b></b>有<b></b>填<b></b>写<b></b>评<b></b>论<b></b>!<b></b>","rateDate":"2016-12-12 16:44:07","reply":"","sellerId":2838892713,"serviceRateContent":"","structuredRateList":[],"tamllSweetLevel":0,"tmallSweetPic":"","tradeEndTime":1480236247000,"tradeId":"","useful":true,"userIdEncryption":"","userInfo":"","userVipLevel":0,"userVipPic":""},{"aliMallSeller":false,"anony":true,"appendComment":{"commentId":"","commentTime":"2017-05-09 07:11:01","content":"用了一段时间，反应挺快，就是耗电特别快，正常用不玩游戏也只能十个小时，经常会出现闪屏现象","days":64,"pics":"","reply":""},"attributes":"","attributesMap":"","aucNumId":"","auctionPicUrl":"","auctionPrice":"","auctionSku":"网络类型:4G全网通;机身颜色:陶瓷白;套餐类型:官方标配;存储容量:64GB","auctionTitle":"","buyCount":0,"carServiceLocation":"","cmsSource":"天猫","displayRatePic":"","displayRateSum":0,"displayUserLink":"","displayUserNick":"g***s","displayUserNumId":"","displayUserRateLink":"","dsr":0.0,"fromMall":true,"fromMemory":0,"gmtCreateTime":1489994240000,"id":310012010076,"pics":"","picsSmall":"","position":"u0001","rateContent":"<b></b>此<b></b>用<b></b>户<b></b>没<b></b>有<b></b>填<b></b>写<b></b>评<b></b>论<b></b>!<b></b>","rateDate":"2017-03-20 15:17:20","reply":"","sellerId":2838892713,"serviceRateContent":"","structuredRateList":[],"tamllSweetLevel":0,"tmallSweetPic":"","tradeEndTime":1488698240000,"tradeId":"","useful":true,"userIdEncryption":"","userInfo":"","userVipLevel":0,"userVipPic":""},{"aliMallSeller":false,"anony":true,"appendComment":{"commentId":"","commentTime":"2017-04-06 09:03:22","content":"我劝朋友买诺基亚1110都别买这个，这个手机真特么坑，不是我存心诋毁中国手机，买来手机这么长时间，刚买第一天手机运行速度就不是很快，用三四个月了，这手机经常死机，而且卡的不行，我同事两千买的手机都比我这个p9强一百呗，真特么垃圾。买了都后悔。而且手机电池也不是那么耐用，正常一天，充电五分钟通话两小时全特么吹牛逼的。过多的不说了，过几天打算了换了，苹果是美国的，中国能生产好的产品我支持，生产不出来想支持没办法，一会拿它去砸核桃","days":67,"pics":"","reply":""},"attributes":"","attributesMap":"","aucNumId":"","auctionPicUrl":"","auctionPrice":"","auctionSku":"网络类型:4G全网通;机身颜色:陶瓷白;套餐类型:官方标配;存储容量:64GB","auctionTitle":"","buyCount":0,"carServiceLocation":"","cmsSource":"天猫","displayRatePic":"","displayRateSum":0,"displayUserLink":"","displayUserNick":"q***5","displayUserNumId":"","displayUserRateLink":"","dsr":0.0,"fromMall":true,"fromMemory":0,"gmtCreateTime":1486900393000,"id":306489430558,"pics":"","picsSmall":"","position":"u0001","rateContent":"<b></b>此<b></b>用<b></b>户<b></b>没<b></b>有<b></b>填<b></b>写<b></b>评<b></b>论<b></b>!<b></b>","rateDate":"2017-02-12 19:53:13","reply":"","sellerId":2838892713,"serviceRateContent":"","structuredRateList":[],"tamllSweetLevel":0,"tmallSweetPic":"","tradeEndTime":1485604393000,"tradeId":"","useful":true,"userIdEncryption":"","userInfo":"","userVipLevel":0,"userVipPic":""},{"aliMallSeller":false,"anony":true,"appendComment":{"commentId":"","commentTime":"2017-05-15 10:53:39","content":"不错的手机","days":84,"pics":"","reply":""},"attributes":"","attributesMap":"","aucNumId":"","auctionPicUrl":"","auctionPrice":"","auctionSku":"网络类型:4G全网通;机身颜色:托帕蓝;套餐类型:官方标配;存储容量:64GB","auctionTitle":"","buyCount":0,"carServiceLocation":"","cmsSource":"天猫","displayRatePic":"","displayRateSum":0,"displayUserLink":"","displayUserNick":"我***5","displayUserNumId":"","displayUserRateLink":"","dsr":0.0,"fromMall":true,"fromMemory":0,"gmtCreateTime":1488854497000,"id":310647258838,"pics":"","picsSmall":"","position":"u0001","rateContent":"<b></b>此<b></b>用<b></b>户<b></b>没<b></b>有<b></b>填<b></b>写<b></b>评<b></b>论<b></b>!<b></b>","rateDate":"2017-03-07 10:41:37","reply":"","sellerId":2838892713,"serviceRateContent":"","structuredRateList":[],"tamllSweetLevel":0,"tmallSweetPic":"","tradeEndTime":1487558497000,"tradeId":"","useful":true,"userIdEncryption":"","userInfo":"","userVipLevel":0,"userVipPic":""},{"aliMallSeller":false,"anony":true,"appendComment":{"commentId":"","commentTime":"2017-05-06 17:46:00","content":"1、国货。 2、任总是贵州人。 3、任总曾是军人。 所以我买华为，尽管它有点贵。","days":55,"pics":"","reply":""},"attributes":"","attributesMap":"","aucNumId":"","auctionPicUrl":"","auctionPrice":"","auctionSku":"网络类型:4G全网通;机身颜色:金色;套餐类型:官方标配;存储容量:64GB","auctionTitle":"","buyCount":0,"carServiceLocation":"","cmsSource":"天猫","displayRatePic":"","displayRateSum":0,"displayUserLink":"","displayUserNick":"王***林","displayUserNumId":"","displayUserRateLink":"","dsr":0.0,"fromMall":true,"fromMemory":0,"gmtCreateTime":1490584808000,"id":309768243721,"pics":"","picsSmall":"","position":"u0001","rateContent":"<b></b>此<b></b>用<b></b>户<b></b>没<b></b>有<b></b>填<b></b>写<b></b>评<b></b>论<b></b>!<b></b>","rateDate":"2017-03-27 11:20:08","reply":"","sellerId":2838892713,"serviceRateContent":"","structuredRateList":[],"tamllSweetLevel":0,"tmallSweetPic":"","tradeEndTime":1489288808000,"tradeId":"","useful":true,"userIdEncryption":"","userInfo":"","userVipLevel":0,"userVipPic":""},{"aliMallSeller":false,"anony":true,"appendComment":"","attributes":"","attributesMap":"","aucNumId":"","auctionPicUrl":"","auctionPrice":"","auctionSku":"网络类型:4G全网通;机身颜色:托帕蓝;套餐类型:官方标配;存储容量:64GB","auctionTitle":"","buyCount":0,"carServiceLocation":"","cmsSource":"天猫","displayRatePic":"","displayRateSum":0,"displayUserLink":"","displayUserNick":"心***9","displayUserNumId":"","displayUserRateLink":"","dsr":0.0,"fromMall":true,"fromMemory":0,"gmtCreateTime":1491053501000,"id":305905716524,"pics":["//img.alicdn.com/bao/uploaded/i4/1279006006897218183/TB2qXq.lYBmpuFjSZFAXXaQ0pXa_!!0-rate.jpg","//img.alicdn.com/bao/uploaded/i4/1279006006898404243/TB2LEzJj9BjpuFjy1XdXXaooVXa_!!0-rate.jpg","//img.alicdn.com/bao/uploaded/i3/1279006006944607645/TB2FiOQlZtnpuFjSZFvXXbcTpXa_!!0-rate.jpg","//img.alicdn.com/bao/uploaded/i1/1279006006946573099/TB2MVccj80kpuFjy1zdXXXuUVXa_!!0-rate.jpg"],"picsSmall":"","position":"","rateContent":"手感很好，速度也很快。物流也给力，棒棒哒！","rateDate":"2017-04-01 21:31:41","reply":"","sellerId":2838892713,"serviceRateContent":"","structuredRateList":[],"tamllSweetLevel":3,"tmallSweetPic":"tmall-grade-t3-18.png","tradeEndTime":1491053428000,"tradeId":"","useful":true,"userIdEncryption":"","userInfo":"","userVipLevel":0,"userVipPic":""},{"aliMallSeller":false,"anony":true,"appendComment":{"commentId":"","commentTime":"2017-03-06 21:32:51","content":"原来评价的显示是按照问题顺序来的 结果一看编辑得有点不通顺 对于我这种不玩游戏的人来说足够了 之前一直想买mate9 Pro曲面屏觉得很好看 但是一直抢不到 仔细一想既然我要求不高 那P9应该也会适合我 但是买的时候没有红色蓝色了 只有入手金色了 到手一看觉得也可以 升级了EMUI5.0 觉得不错 希望用久了卡顿的那种情况来得慢一点 最后继续开始华为之旅 。","days":10,"pics":"","reply":"亲爱哒，快递小哥为了我们之间深厚的感情，连夜把宝贝送到您的手里，只为给您一个惊喜，有木有很激动呢，谢谢您的好评哦，糯米真是太感动啦，当感觉手机反应速度慢了，建议您及时清理缓存，及时清理后台不使用的应用，希望可以给您带来帮助。我们愿一路承载您精致的品味，创造更美好的世界！祝您天天都有好心情~~"},"attributes":"","attributesMap":"","aucNumId":"","auctionPicUrl":"","auctionPrice":"","auctionSku":"网络类型:4G全网通;机身颜色:金色;套餐类型:官方标配;存储容量:64GB","auctionTitle":"","buyCount":0,"carServiceLocation":"","cmsSource":"天猫","displayRatePic":"","displayRateSum":0,"displayUserLink":"","displayUserNick":"f***有","displayUserNumId":"","displayUserRateLink":"","dsr":0.0,"fromMall":true,"fromMemory":0,"gmtCreateTime":1488806523000,"id":302940706615,"pics":"","picsSmall":"","position":"u0001","rateContent":"<b></b>反<b></b>正<b></b>我<b></b>觉<b></b>得<b></b>电<b></b>量<b></b>够<b></b>用<b></b> <b></b>基<b></b>本<b></b>上<b></b>充<b></b>一<b></b>次<b></b>用<b></b>两<b></b>天<b></b> <b></b>（<b></b>平<b></b>时<b></b>不<b></b>玩<b></b>游<b></b>戏<b></b>）<b></b> <b></b>音<b></b>质<b></b>觉<b></b>得<b></b>偏<b></b>小<b></b> <b></b>目<b></b>前<b></b>来<b></b>看<b></b>不<b></b>错<b></b> <b></b>有<b></b>过<b></b>一<b></b>次<b></b>卡<b></b>屏<b></b> <b></b>切<b></b>换<b></b>软<b></b>件<b></b>能<b></b>力<b></b>还<b></b>是<b></b>可<b></b>以<b></b>的<b></b> <b></b>比<b></b>之<b></b>前<b></b>的<b></b>P<b></b>7<b></b>快<b></b>多<b></b>了<b></b> <b></b>虽<b></b>然<b></b>不<b></b>是<b></b>快<b></b>充<b></b> <b></b>但<b></b>是<b></b>这<b></b>个<b></b>充<b></b>电<b></b>已<b></b>经<b></b>满<b></b>足<b></b>于<b></b>大<b></b>多<b></b>数<b></b>人<b></b>了<b></b> <b></b>跟<b></b>徕<b></b>卡<b></b>合<b></b>作<b></b>还<b></b>是<b></b>很<b></b>到<b></b>位<b></b>的<b></b> <b></b>物<b></b>流<b></b>不<b></b>用<b></b>说<b></b>了<b></b>顺<b></b>丰<b></b>一<b></b>个<b></b>字<b></b>快<b></b> <b></b>里<b></b>面<b></b>保<b></b>护<b></b>得<b></b>也<b></b>好<b></b>","rateDate":"2017-03-06 21:22:03","reply":"","sellerId":2838892713,"serviceRateContent":"","structuredRateList":[],"tamllSweetLevel":4,"tmallSweetPic":"tmall-grade-t4-18.png","tradeEndTime":1487860536000,"tradeId":"","useful":true,"userIdEncryption":"","userInfo":"","userVipLevel":0,"userVipPic":""},{"aliMallSeller":false,"anony":true,"appendComment":{"commentId":"","commentTime":"2017-04-25 21:38:44","content":"手机最大的亮点是照相了，其他功能任何一个安卓机都差不多了，觉得性价比不是很高，","days":59,"pics":"","reply":""},"attributes":"","attributesMap":"","aucNumId":"","auctionPicUrl":"","auctionPrice":"","auctionSku":"网络类型:4G全网通;机身颜色:陶瓷白;套餐类型:官方标配;存储容量:64GB","auctionTitle":"","buyCount":0,"carServiceLocation":"","cmsSource":"天猫","displayRatePic":"","displayRateSum":0,"displayUserLink":"","displayUserNick":"x***r","displayUserNumId":"","displayUserRateLink":"","dsr":0.0,"fromMall":true,"fromMemory":0,"gmtCreateTime":1489292250000,"id":308512135559,"pics":"","picsSmall":"","position":"u0001","rateContent":"<b></b>此<b></b>用<b></b>户<b></b>没<b></b>有<b></b>填<b></b>写<b></b>评<b></b>论<b></b>!<b></b>","rateDate":"2017-03-12 12:17:30","reply":"","sellerId":2838892713,"serviceRateContent":"","structuredRateList":[],"tamllSweetLevel":0,"tmallSweetPic":"","tradeEndTime":1487996250000,"tradeId":"","useful":true,"userIdEncryption":"","userInfo":"","userVipLevel":0,"userVipPic":""},{"aliMallSeller":false,"anony":true,"appendComment":{"commentId":"","commentTime":"2017-05-01 12:20:00","content":"帮朋友买的、很好用、满意","days":47,"pics":"","reply":""},"attributes":"","attributesMap":"","aucNumId":"","auctionPicUrl":"","auctionPrice":"","auctionSku":"网络类型:4G全网通;机身颜色:金色;套餐类型:官方标配;存储容量:64GB","auctionTitle":"","buyCount":0,"carServiceLocation":"","cmsSource":"天猫","displayRatePic":"","displayRateSum":0,"displayUserLink":"","displayUserNick":"z***g","displayUserNumId":"","displayUserRateLink":"","dsr":0.0,"fromMall":true,"fromMemory":0,"gmtCreateTime":1490785852000,"id":308946255069,"pics":"","picsSmall":"","position":"u0001","rateContent":"<b></b>此<b></b>用<b></b>户<b></b>没<b></b>有<b></b>填<b></b>写<b></b>评<b></b>论<b></b>!<b></b>","rateDate":"2017-03-29 19:10:52","reply":"","sellerId":2838892713,"serviceRateContent":"","structuredRateList":[],"tamllSweetLevel":0,"tmallSweetPic":"","tradeEndTime":1489489852000,"tradeId":"","useful":true,"userIdEncryption":"","userInfo":"","userVipLevel":0,"userVipPic":""},{"aliMallSeller":false,"anony":true,"appendComment":{"commentId":"","commentTime":"2017-04-29 12:38:47","content":"帮朋友买的，还不错挺好的","days":23,"pics":"","reply":""},"attributes":"","attributesMap":"","aucNumId":"","auctionPicUrl":"","auctionPrice":"","auctionSku":"网络类型:4G全网通;机身颜色:金色;套餐类型:官方标配;存储容量:64GB","auctionTitle":"","buyCount":0,"carServiceLocation":"","cmsSource":"天猫","displayRatePic":"","displayRateSum":0,"displayUserLink":"","displayUserNick":"w***2","displayUserNumId":"","displayUserRateLink":"","dsr":0.0,"fromMall":true,"fromMemory":0,"gmtCreateTime":1492690954000,"id":308681852683,"pics":"","picsSmall":"","position":"u0001","rateContent":"<b></b>此<b></b>用<b></b>户<b></b>没<b></b>有<b></b>填<b></b>写<b></b>评<b></b>论<b></b>!<b></b>","rateDate":"2017-04-20 20:22:34","reply":"","sellerId":2838892713,"serviceRateContent":"","structuredRateList":[],"tamllSweetLevel":0,"tmallSweetPic":"","tradeEndTime":1491394954000,"tradeId":"","useful":true,"userIdEncryption":"","userInfo":"","userVipLevel":0,"userVipPic":""},{"aliMallSeller":false,"anony":true,"appendComment":"","attributes":"","attributesMap":"","aucNumId":"","auctionPicUrl":"","auctionPrice":"","auctionSku":"网络类型:4G全网通;机身颜色:陶瓷白;套餐类型:官方标配;存储容量:64GB","auctionTitle":"","buyCount":0,"carServiceLocation":"","cmsSource":"天猫","displayRatePic":"","displayRateSum":0,"displayUserLink":"","displayUserNick":"行***3","displayUserNumId":"","displayUserRateLink":"","dsr":0.0,"fromMall":true,"fromMemory":0,"gmtCreateTime":1488887089000,"id":303009612417,"pics":"","picsSmall":"","position":"","rateContent":"打开后，感到很惊讶，手机真的很好看，拍照功能也不错，手感挺合适，质量尺寸都满意。就是手机自带工具的图标没荣耀的好看，图标有点昏沉沉的不够美艳。","rateDate":"2017-03-07 19:44:49","reply":"亲亲，这款产品就是那么漂亮，这样才能配上您的绝世美貌。另外图标的样式，您可以在主题中更改哦。感谢您的支持，祝您万事如意~","sellerId":2838892713,"serviceRateContent":"","structuredRateList":[],"tamllSweetLevel":3,"tmallSweetPic":"tmall-grade-t3-18.png","tradeEndTime":1488886877000,"tradeId":"","useful":true,"userIdEncryption":"","userInfo":"","userVipLevel":0,"userVipPic":""},{"aliMallSeller":false,"anony":true,"appendComment":"","attributes":"","attributesMap":"","aucNumId":"","auctionPicUrl":"","auctionPrice":"","auctionSku":"网络类型:4G全网通;机身颜色:金色;套餐类型:官方标配;存储容量:64GB","auctionTitle":"","buyCount":0,"carServiceLocation":"","cmsSource":"天猫","displayRatePic":"","displayRateSum":0,"displayUserLink":"","displayUserNick":"末***谢","displayUserNumId":"","displayUserRateLink":"","dsr":0.0,"fromMall":true,"fromMemory":0,"gmtCreateTime":1490267609000,"id":304924366599,"pics":"","picsSmall":"","position":"","rateContent":"华为一生推，物流超快，包装精细，用了几天了感觉都不错，运行够快，操作带感，拍照惊喜，不过之前用的荣耀七和这个手机都有充电时，屏幕不受控制的现象，不过瑕不掩瑜，手动比心","rateDate":"2017-03-23 19:13:29","reply":"亲亲~听到您说喜欢我们的产品，我感觉自己特别自豪，美好的一天从您的认可开始呢。另外关于您提出的触屏问题，请确认是否使用的华为标准/标配充电器和数据线，如果不是，请您更换标准/标配充电器和数据线观察是否正常。如果使用华为标配充电器，请检查是否在拔掉充电器后，手机功能恢复正常，如果拔掉后恢复正常，请更换数据线充电器。愿华为给您快乐的日子更添一分乐趣！","sellerId":2838892713,"serviceRateContent":"","structuredRateList":[],"tamllSweetLevel":0,"tmallSweetPic":"","tradeEndTime":1490267449000,"tradeId":"","useful":true,"userIdEncryption":"","userInfo":"","userVipLevel":0,"userVipPic":""},{"aliMallSeller":false,"anony":true,"appendComment":{"commentId":"","commentTime":"2017-04-25 13:19:07","content":"不到三个月就出现屏幕白点 还是不要在淘宝上买手机 质量得不到保证","days":106,"pics":"","reply":""},"attributes":"","attributesMap":"","aucNumId":"","auctionPicUrl":"","auctionPrice":"","auctionSku":"网络类型:移动4G/联通4G/电信4G;机身颜色:琥珀灰;套餐类型:官方标配;存储容量:64GB","auctionTitle":"","buyCount":0,"carServiceLocation":"","cmsSource":"天猫","displayRatePic":"","displayRateSum":0,"displayUserLink":"","displayUserNick":"y***8","displayUserNumId":"","displayUserRateLink":"","dsr":0.0,"fromMall":true,"fromMemory":0,"gmtCreateTime":1483877640000,"id":298431780354,"pics":"","picsSmall":"","position":"u0001","rateContent":"<b></b>此<b></b>用<b></b>户<b></b>没<b></b>有<b></b>填<b></b>写<b></b>评<b></b>论<b></b>!<b></b>","rateDate":"2017-01-08 20:14:00","reply":"","sellerId":2838892713,"serviceRateContent":"","structuredRateList":[],"tamllSweetLevel":3,"tmallSweetPic":"tmall-grade-t3-18.png","tradeEndTime":1483877632000,"tradeId":"","useful":true,"userIdEncryption":"","userInfo":"","userVipLevel":0,"userVipPic":""},{"aliMallSeller":false,"anony":true,"appendComment":{"commentId":"","commentTime":"2017-05-01 12:18:19","content":"很不错，老婆觉得好用","days":129,"pics":"","reply":""},"attributes":"","attributesMap":"","aucNumId":"","auctionPicUrl":"","auctionPrice":"","auctionSku":"网络类型:移动4G/联通4G/电信4G;机身颜色:托帕蓝;套餐类型:官方标配;存储容量:64GB","auctionTitle":"","buyCount":0,"carServiceLocation":"","cmsSource":"天猫","displayRatePic":"","displayRateSum":0,"displayUserLink":"","displayUserNick":"f***4","displayUserNumId":"","displayUserRateLink":"","dsr":0.0,"fromMall":true,"fromMemory":0,"gmtCreateTime":1483699382000,"id":309030936564,"pics":"","picsSmall":"","position":"u0001","rateContent":"<b></b>此<b></b>用<b></b>户<b></b>没<b></b>有<b></b>填<b></b>写<b></b>评<b></b>论<b></b>!<b></b>","rateDate":"2017-01-06 18:43:02","reply":"","sellerId":2838892713,"serviceRateContent":"","structuredRateList":[],"tamllSweetLevel":0,"tmallSweetPic":"","tradeEndTime":1482403382000,"tradeId":"","useful":true,"userIdEncryption":"","userInfo":"","userVipLevel":0,"userVipPic":""},{"aliMallSeller":false,"anony":true,"appendComment":"","attributes":"","attributesMap":"","aucNumId":"","auctionPicUrl":"","auctionPrice":"","auctionSku":"网络类型:4G全网通;机身颜色:托帕蓝;套餐类型:官方标配;存储容量:64GB","auctionTitle":"","buyCount":0,"carServiceLocation":"","cmsSource":"天猫","displayRatePic":"","displayRateSum":0,"displayUserLink":"","displayUserNick":"永***友","displayUserNumId":"","displayUserRateLink":"","dsr":0.0,"fromMall":true,"fromMemory":0,"gmtCreateTime":1488964586000,"id":303152390131,"pics":["//img.alicdn.com/bao/uploaded/i1/1482605023953993127/TB2zmTmihhmpuFjSZFyXXcLdFXa_!!0-rate.jpg"],"picsSmall":"","position":"","rateContent":"用了段时间才来评价的 拍照效果真的很惊艳 但就是掉电较快些 个人还是觉得不错 推荐","rateDate":"2017-03-08 17:16:26","reply":"p9旗舰，所向披靡，莱卡高清拍照，发现生活之美！关于耗电快的问题，建议您备份数据后升级到最新版本；若当地4G信号弱时关闭4G开关，防止网络来回切换导致高耗电，这样可以有效改善耗电快的问题哦。我们定会在您期待的路上勇往直前，为您奉献出更好的产品，小北期待与您再次相遇。","sellerId":2838892713,"serviceRateContent":"","structuredRateList":[],"tamllSweetLevel":4,"tmallSweetPic":"tmall-grade-t4-18.png","tradeEndTime":1488023451000,"tradeId":"","useful":true,"userIdEncryption":"","userInfo":"","userVipLevel":0,"userVipPic":""},{"aliMallSeller":false,"anony":true,"appendComment":{"commentId":"","commentTime":"2017-04-29 23:40:01","content":"比实体店还贵","days":153,"pics":"","reply":""},"attributes":"","attributesMap":"","aucNumId":"","auctionPicUrl":"","auctionPrice":"","auctionSku":"网络类型:移动4G/联通4G/电信4G;机身颜色:金色;套餐类型:官方标配;存储容量:64GB","auctionTitle":"","buyCount":0,"carServiceLocation":"","cmsSource":"天猫","displayRatePic":"","displayRateSum":0,"displayUserLink":"","displayUserNick":"j***6","displayUserNumId":"","displayUserRateLink":"","dsr":0.0,"fromMall":true,"fromMemory":0,"gmtCreateTime":1481550497000,"id":308900833749,"pics":"","picsSmall":"","position":"u0001","rateContent":"<b></b>此<b></b>用<b></b>户<b></b>没<b></b>有<b></b>填<b></b>写<b></b>评<b></b>论<b></b>!<b></b>","rateDate":"2016-12-12 21:48:17","reply":"","sellerId":2838892713,"serviceRateContent":"","structuredRateList":[],"tamllSweetLevel":3,"tmallSweetPic":"tmall-grade-t3-18.png","tradeEndTime":1480254497000,"tradeId":"","useful":true,"userIdEncryption":"","userInfo":"","userVipLevel":0,"userVipPic":""},{"aliMallSeller":false,"anony":true,"appendComment":"","attributes":"","attributesMap":"","aucNumId":"","auctionPicUrl":"","auctionPrice":"","auctionSku":"网络类型:4G全网通;机身颜色:金色;套餐类型:官方标配;存储容量:64GB","auctionTitle":"","buyCount":0,"carServiceLocation":"","cmsSource":"天猫","displayRatePic":"","displayRateSum":0,"displayUserLink":"","displayUserNick":"黄***8","displayUserNumId":"","displayUserRateLink":"","dsr":0.0,"fromMall":true,"fromMemory":0,"gmtCreateTime":1488939503000,"id":303351286930,"pics":"","picsSmall":"","position":"","rateContent":"流畅 画质优美 柔和不刺耳 飞快 一般 我们全家都用华为，第一是为支持国货，第二价格相对居中，第三质量确实不错，虽然安卓系统有些缺陷，但对于普通使用已经足够","rateDate":"2017-03-08 10:18:23","reply":"亲亲，听见您大声说出支持国产，叮叮有一种与您相见恨晚的感觉。这么好的民族产品，我们必须支持！非常感谢您在成千上万的店铺中选择了华为，把信任交给了华为，对华为而言是非常珍惜的情谊，今后华为会不断的完善改进的，希望以后华为能给您更加完美的体验。愿您幸福安康~","sellerId":2838892713,"serviceRateContent":"","structuredRateList":[],"tamllSweetLevel":4,"tmallSweetPic":"tmall-grade-t4-18.png","tradeEndTime":1487748593000,"tradeId":"","useful":true,"userIdEncryption":"","userInfo":"","userVipLevel":0,"userVipPic":""},{"aliMallSeller":false,"anony":false,"appendComment":"","attributes":"","attributesMap":"","aucNumId":"","auctionPicUrl":"","auctionPrice":"","auctionSku":"网络类型:4G全网通;机身颜色:金色;套餐类型:官方标配;存储容量:64GB","auctionTitle":"","buyCount":0,"carServiceLocation":"","cmsSource":"天猫","displayRatePic":"","displayRateSum":0,"displayUserLink":"","displayUserNick":"h***8","displayUserNumId":"","displayUserRateLink":"","dsr":0.0,"fromMall":true,"fromMemory":0,"gmtCreateTime":1490247695000,"id":304886644904,"pics":"","picsSmall":"","position":"","rateContent":"之前用的P9Plus128g不到一年就爆炸了，虽然至今还心有余悸，权衡过后还是选了p9。用p9可以保持以前习惯，流畅度也一如既往。稍小一点的屏也还能接受，但愿质量能过关，不再悲剧就好。","rateDate":"2017-03-23 13:41:35","reply":"","sellerId":2838892713,"serviceRateContent":"","structuredRateList":[],"tamllSweetLevel":0,"tmallSweetPic":"","tradeEndTime":1490247305000,"tradeId":"","useful":true,"userIdEncryption":"","userInfo":"","userVipLevel":0,"userVipPic":""},{"aliMallSeller":false,"anony":true,"appendComment":"","attributes":"","attributesMap":"","aucNumId":"","auctionPicUrl":"","auctionPrice":"","auctionSku":"网络类型:4G全网通;机身颜色:金色;套餐类型:官方标配;存储容量:64GB","auctionTitle":"","buyCount":0,"carServiceLocation":"","cmsSource":"天猫","displayRatePic":"","displayRateSum":0,"displayUserLink":"","displayUserNick":"z***6","displayUserNumId":"","displayUserRateLink":"","dsr":0.0,"fromMall":true,"fromMemory":0,"gmtCreateTime":1489492173000,"id":303858594991,"pics":"","picsSmall":"","position":"","rateContent":"操作使用了一周，感觉非常棒！华为不愧为国产大牌.质量上乘，手感舒适，操作顺畅，屏显图片颜色艳丽，细腻。","rateDate":"2017-03-14 19:49:33","reply":"","sellerId":2838892713,"serviceRateContent":"","structuredRateList":[],"tamllSweetLevel":3,"tmallSweetPic":"tmall-grade-t3-18.png","tradeEndTime":1488864774000,"tradeId":"","useful":true,"userIdEncryption":"","userInfo":"","userVipLevel":0,"userVipPic":""},{"aliMallSeller":false,"anony":true,"appendComment":"","attributes":"","attributesMap":"","aucNumId":"","auctionPicUrl":"","auctionPrice":"","auctionSku":"网络类型:4G全网通;机身颜色:金色;套餐类型:官方标配;存储容量:64GB","auctionTitle":"","buyCount":0,"carServiceLocation":"","cmsSource":"天猫","displayRatePic":"","displayRateSum":0,"displayUserLink":"","displayUserNick":"开***侣","displayUserNumId":"","displayUserRateLink":"","dsr":0.0,"fromMall":true,"fromMemory":0,"gmtCreateTime":1490763375000,"id":305473656227,"pics":"","picsSmall":"","position":"","rateContent":"己第二次来买了，品质没得说，很精致，手感很好，给华为品质产品，点赞阿，我一直是华为的忠实粉丝，从p7一直追到现在的P9，9已经用了一年，这是帮朋友买的","rateDate":"2017-03-29 12:56:15","reply":"","sellerId":2838892713,"serviceRateContent":"","structuredRateList":[],"tamllSweetLevel":4,"tmallSweetPic":"tmall-grade-t4-18.png","tradeEndTime":1489567217000,"tradeId":"","useful":true,"userIdEncryption":"","userInfo":"","userVipLevel":0,"userVipPic":""}],"searchinfo":"","tags":""}