{"paginator":{"items":295,"lastPage":15,"page":2},"rateCount":{"picNum":65,"shop":0,"total":295,"used":14},"rateDanceInfo":{"currentMilles":1494989828976,"intervalMilles":24731829520,"showChooseTopic":false,"storeType":4},"rateList":[{"aliMallSeller":false,"anony":true,"appendComment":"","attributes":"","attributesMap":"","aucNumId":"","auctionPicUrl":"","auctionPrice":"","auctionSku":"颜色分类:银色;套餐类型:官方标配","auctionTitle":"","buyCount":0,"carServiceLocation":"","cmsSource":"天猫","displayRatePic":"","displayRateSum":0,"displayUserLink":"","displayUserNick":"t***4","displayUserNumId":"","displayUserRateLink":"","dsr":0.0,"fromMall":true,"fromMemory":0,"gmtCreateTime":1493261845000,"id":308580001855,"pics":["//img.alicdn.com/bao/uploaded/i3/1159406026346642169/TB2e_yLngxlpuFjSszgXXcJdpXa_!!0-rate.jpg","//img.alicdn.com/bao/uploaded/i3/1159406026386259879/TB2qTH_pNxmpuFjSZFNXXXrRXXa_!!0-rate.jpg","//img.alicdn.com/bao/uploaded/i4/1159406026496187059/TB2SAi0ngxlpuFjSszbXXcSVpXa_!!0-rate.jpg"],"picsSmall":"","position":"920-11-0,14;1930-11-15,17;920-11-35,40;920-11-18,24;1130-11-25,34;","rateContent":"用了有一个多星期了越来越喜欢，很薄，提起来很方便，而且颜色也比较耐看，电脑很精致","rateDate":"2017-04-27 10:57:25","reply":"感谢您对小米的支持与厚爱，感情的浓淡，是建立在对彼此的信任，建立在对彼此的安全感。您的满意是我们最终追求的目标。期待亲爱的再次光临~","sellerId":1714128138,"serviceRateContent":"","structuredRateList":[],"tamllSweetLevel":2,"tmallSweetPic":"tmall-grade-t2-18.png","tradeEndTime":1492505575000,"tradeId":"","useful":true,"userIdEncryption":"","userInfo":"","userVipLevel":0,"userVipPic":""},{"aliMallSeller":false,"anony":true,"appendComment":"","attributes":"","attributesMap":"","aucNumId":"","auctionPicUrl":"","auctionPrice":"","auctionSku":"颜色分类:银色;套餐类型:套餐三","auctionTitle":"","buyCount":0,"carServiceLocation":"","cmsSource":"天猫","displayRatePic":"","displayRateSum":0,"displayUserLink":"","displayUserNick":"g***n","displayUserNumId":"","displayUserRateLink":"","dsr":0.0,"fromMall":true,"fromMemory":0,"gmtCreateTime":1492992459000,"id":308262040598,"pics":["//img.alicdn.com/bao/uploaded/i3/1740206023997649299/TB26q7fmM0kpuFjSspdXXX4YXXa_!!0-rate.jpg","//img.alicdn.com/bao/uploaded/i4/1740206024033520142/TB2DjAEpodnpuFjSZPhXXbChpXa_!!0-rate.jpg","//img.alicdn.com/bao/uploaded/i1/1740206024154859573/TB22aHVpdBopuFjSZPcXXc9EpXa_!!0-rate.jpg","//img.alicdn.com/bao/uploaded/i3/1740206024236334751/TB2HTgQmMxlpuFjSszbXXcSVpXa_!!0-rate.jpg"],"picsSmall":"","position":"920-13-47,52;420-12-6,13;420-11-0,5;1130-13-34,42;","rateContent":"物流超级快！顺丰速度棒棒的！新机用着怎么都好，怎么看怎么顺眼！只是，有一点点小的刮痕，还挺深，好在不明显，也不影响使用。","rateDate":"2017-04-24 08:07:39","reply":"客官咱家店铺的设备都享受正规三包的，如您的设备有问题，您可以第一时间联系我们在线客服的，我们定竭尽所能为您扫除困扰。感谢您对小米的支持与喜爱，愿我们的产品让您的生活更加美好。","sellerId":1714128138,"serviceRateContent":"","structuredRateList":[],"tamllSweetLevel":0,"tmallSweetPic":"","tradeEndTime":1492992291000,"tradeId":"","useful":true,"userIdEncryption":"","userInfo":"","userVipLevel":0,"userVipPic":""},{"aliMallSeller":false,"anony":true,"appendComment":"","attributes":"","attributesMap":"","aucNumId":"","auctionPicUrl":"","auctionPrice":"","auctionSku":"颜色分类:银色;套餐类型:官方标配","auctionTitle":"","buyCount":0,"carServiceLocation":"","cmsSource":"天猫","displayRatePic":"","displayRateSum":0,"displayUserLink":"","displayUserNick":"x***8","displayUserNumId":"","displayUserRateLink":"","dsr":0.0,"fromMall":true,"fromMemory":0,"gmtCreateTime":1494325661000,"id":310009399708,"pics":["//img.alicdn.com/bao/uploaded/i3/1041606035566120494/TB28i_goG8lpuFjy0FpXXaGrpXa_!!0-rate.jpg"],"picsSmall":"","position":"2430-11-82,90;1230-12-34,46;10120-12-53,60;920-12-91,100;10120-12-61,69;1130-11-0,11;","rateContent":"笔记本外观确实挺好看的，也挺薄，但是我买回来几天就出现了卡里的情况，维持更新状态十几分钟不动，卡在那里的，然后我联系客服，客服让我强制关机，才买回来几天，也是醉了，客服态度还挺好的。我就是平常做做表格，办公用，就这样吧","rateDate":"2017-05-09 18:27:41","reply":"抱歉给您带来不便了，笔记本出现卡顿死机的情况，您可以按照下面的步骤排查下呢：1.检查电脑的运行环境，如果在温度过高的环境中运行可能会因为硬件的自我保护功能出现此类现象。2.检查三方软件问题，是否在安装了某个程序后出现的问题，建议尝试更换软件版本或使用兼容模式运行，如果问题依旧建议联系软件开发商协助解决。3.检查电脑驱动问题，进入Windows设备管理器查看是否有异常的驱动，更新驱动或使用专业的驱动检测类软件尝试解决。4.检查病毒、木马类恶意程序是否感染了电脑，可使用Windows defender或第三方杀毒类软件进行查杀。5.进入Windows自带的安全模式进行排查。安全模式下会对三方软件、驱动、木马、病毒类软件做出隔离，可以帮助判断问题。如果在安全模式下依旧出现问题，建议导出电脑中的重要文件至移动硬盘或者U盘，然后重置系统，查看是否正常。感谢您的支持和喜爱，祝您生活愉快。","sellerId":1714128138,"serviceRateContent":"","structuredRateList":[],"tamllSweetLevel":0,"tmallSweetPic":"","tradeEndTime":1494295521000,"tradeId":"","useful":true,"userIdEncryption":"","userInfo":"","userVipLevel":0,"userVipPic":""},{"aliMallSeller":false,"anony":true,"appendComment":"","attributes":"","attributesMap":"","aucNumId":"","auctionPicUrl":"","auctionPrice":"","auctionSku":"颜色分类:银色;套餐类型:官方标配","auctionTitle":"","buyCount":0,"carServiceLocation":"","cmsSource":"天猫","displayRatePic":"","displayRateSum":0,"displayUserLink":"","displayUserNick":"l***n","displayUserNumId":"","displayUserRateLink":"","dsr":0.0,"fromMall":true,"fromMemory":0,"gmtCreateTime":1492333645000,"id":307426875624,"pics":["//img.alicdn.com/bao/uploaded/i1/1207206018624121752/TB2vnBVl3JkpuFjSszcXXXfsFXa_!!0-rate.jpg"],"picsSmall":"","position":"920-11-17,22;920-11-0,8;420-11-13,16;1730-11-23,27;420-11-9,12;","rateContent":"小米笔记本就是好，反应快，速度快，值得推荐的，性能不错，","rateDate":"2017-04-16 17:07:25","reply":"被人信赖是一笔买不到的财富，感谢亲给予我们这笔珍贵的财富。我们会继续努力，么么哒~","sellerId":1714128138,"serviceRateContent":"","structuredRateList":[],"tamllSweetLevel":4,"tmallSweetPic":"tmall-grade-t4-18.png","tradeEndTime":1492333508000,"tradeId":"","useful":true,"userIdEncryption":"","userInfo":"","userVipLevel":0,"userVipPic":""},{"aliMallSeller":false,"anony":true,"appendComment":"","attributes":"","attributesMap":"","aucNumId":"","auctionPicUrl":"","auctionPrice":"","auctionSku":"颜色分类:银色;套餐类型:官方标配","auctionTitle":"","buyCount":0,"carServiceLocation":"","cmsSource":"天猫","displayRatePic":"","displayRateSum":0,"displayUserLink":"","displayUserNick":"j***i","displayUserNumId":"","displayUserRateLink":"","dsr":0.0,"fromMall":true,"fromMemory":0,"gmtCreateTime":1492391618000,"id":307677440197,"pics":["//img.alicdn.com/bao/uploaded/i4/1560106018962689413/TB21IAAoipnpuFjSZFIXXXh2VXa_!!0-rate.jpg","//img.alicdn.com/bao/uploaded/i2/1560106019019491244/TB2tRM3ohlmpuFjSZPfXXc9iXXa_!!0-rate.jpg","//img.alicdn.com/bao/uploaded/i3/1560106019050506726/TB2zo2clYBkpuFjy1zkXXbSpFXa_!!0-rate.jpg","//img.alicdn.com/bao/uploaded/i3/1560106019080459370/TB2_t6RodBopuFjSZPcXXc9EpXa_!!0-rate.jpg"],"picsSmall":"","position":"920-11-0,5;920-11-25,31;920-11-39,46;920-11-6,24;","rateContent":"收到很惊喜，今天小米能够做出这样的品质让我很欣慰。推荐好友买的，下次还会再来。朋友收到很开心。","rateDate":"2017-04-17 09:13:38","reply":"","sellerId":1714128138,"serviceRateContent":"","structuredRateList":[],"tamllSweetLevel":4,"tmallSweetPic":"tmall-grade-t4-18.png","tradeEndTime":1492391493000,"tradeId":"","useful":true,"userIdEncryption":"","userInfo":"","userVipLevel":0,"userVipPic":""},{"aliMallSeller":false,"anony":true,"appendComment":"","attributes":"","attributesMap":"","aucNumId":"","auctionPicUrl":"","auctionPrice":"","auctionSku":"颜色分类:金色;套餐类型:官方标配","auctionTitle":"","buyCount":0,"carServiceLocation":"","cmsSource":"天猫","displayRatePic":"","displayRateSum":0,"displayUserLink":"","displayUserNick":"马***0","displayUserNumId":"","displayUserRateLink":"","dsr":0.0,"fromMall":true,"fromMemory":0,"gmtCreateTime":1493434728000,"id":308671795090,"pics":"","picsSmall":"","position":"920-11-15,19;620-11-0,6;","rateContent":"商品质量很好，祝商家生意兴隆，人气最旺。","rateDate":"2017-04-29 10:58:48","reply":"","sellerId":1714128138,"serviceRateContent":"","structuredRateList":[],"tamllSweetLevel":3,"tmallSweetPic":"tmall-grade-t3-18.png","tradeEndTime":1492582823000,"tradeId":"","useful":true,"userIdEncryption":"","userInfo":"","userVipLevel":0,"userVipPic":""},{"aliMallSeller":false,"anony":true,"appendComment":"","attributes":"","attributesMap":"","aucNumId":"","auctionPicUrl":"","auctionPrice":"","auctionSku":"颜色分类:银色;套餐类型:套餐一","auctionTitle":"","buyCount":0,"carServiceLocation":"","cmsSource":"天猫","displayRatePic":"","displayRateSum":0,"displayUserLink":"","displayUserNick":"中***发","displayUserNumId":"","displayUserRateLink":"","dsr":0.0,"fromMall":true,"fromMemory":0,"gmtCreateTime":1494565735000,"id":310326657169,"pics":["//img.alicdn.com/bao/uploaded/i2/1863706037671889118/TB2_4pipa8lpuFjy0FpXXaGrpXa_!!0-rate.jpg","//img.alicdn.com/bao/uploaded/i1/1863706037699492423/TB2dZvRr90mpuFjSZPiXXbssVXa_!!0-rate.jpg"],"picsSmall":"","position":"920-11-0,3;920-11-4,11;","rateContent":"超喜欢，目前使用都OK，就是鼠标蓝牙连接不上","rateDate":"2017-05-12 13:08:55","reply":"亲爱的米粉，我们的产品均为官方正品，享受正规三包服务哦，而蓝牙鼠标无法连接，建议重新开机尝试，如产品存在质量问题，可以联系在线客服反馈，我们会竭诚为您服务，感谢您对小米的支持，祝您生活愉快！","sellerId":1714128138,"serviceRateContent":"","structuredRateList":[],"tamllSweetLevel":4,"tmallSweetPic":"tmall-grade-t4-18.png","tradeEndTime":1494565664000,"tradeId":"","useful":true,"userIdEncryption":"","userInfo":"","userVipLevel":0,"userVipPic":""},{"aliMallSeller":false,"anony":false,"appendComment":{"commentId":"","commentTime":"2017-05-15 20:04:16","content":"没有三包凭证，没有发票，没有收据，对小米的东西彻底失望了。以后不会再买小米的东西了。","days":0,"pics":"","reply":""},"attributes":"","attributesMap":"","aucNumId":"","auctionPicUrl":"","auctionPrice":"","auctionSku":"颜色分类:银色;套餐类型:官方标配","auctionTitle":"","buyCount":0,"carServiceLocation":"","cmsSource":"天猫","displayRatePic":"","displayRateSum":0,"displayUserLink":"","displayUserNick":"d***3","displayUserNumId":"","displayUserRateLink":"","dsr":0.0,"fromMall":true,"fromMemory":0,"gmtCreateTime":1494849264000,"id":310627803215,"pics":["//img.alicdn.com/bao/uploaded/i4/1724706040456596457/TB2AZ6qpwNlpuFjy0FfXXX3CpXa_!!0-rate.jpg"],"picsSmall":"","position":"920-11-0,15;u0001","rateContent":"新电脑刚开机5分钟光标就不动了，电脑热的不行。后悔了。","rateDate":"2017-05-15 19:54:24","reply":"","sellerId":1714128138,"serviceRateContent":"","structuredRateList":[],"tamllSweetLevel":3,"tmallSweetPic":"tmall-grade-t3-18.png","tradeEndTime":1494849051000,"tradeId":"","useful":true,"userIdEncryption":"","userInfo":"","userVipLevel":0,"userVipPic":""},{"aliMallSeller":false,"anony":true,"appendComment":"","attributes":"","attributesMap":"","aucNumId":"","auctionPicUrl":"","auctionPrice":"","auctionSku":"颜色分类:金色;套餐类型:官方标配","auctionTitle":"","buyCount":0,"carServiceLocation":"","cmsSource":"天猫","displayRatePic":"","displayRateSum":0,"displayUserLink":"","displayUserNick":"s***w","displayUserNumId":"","displayUserRateLink":"","dsr":0.0,"fromMall":true,"fromMemory":0,"gmtCreateTime":1492840812000,"id":308252044852,"pics":"","picsSmall":"","position":"1830-12-32,46;10420-12-67,71;920-11-63,66;920-11-57,62;920-11-20,31;","rateContent":"追剧中，哎，米粉节看有有鼠标送就下单了。UsB接口多一个就好了，游戏隐来了还能拿办公本玩几把。推荐给想要的朋友们，赞一个国货 不错哟，就是发货","rateDate":"2017-04-22 14:00:12","reply":"我们相信时间是检验真理的唯一标准，用户实实在在的使用体验才是小米最重视与关注的~快快使用起来吧，期待您的再次来访哦。","sellerId":1714128138,"serviceRateContent":"","structuredRateList":[],"tamllSweetLevel":2,"tmallSweetPic":"tmall-grade-t2-18.png","tradeEndTime":1492588881000,"tradeId":"","useful":true,"userIdEncryption":"","userInfo":"","userVipLevel":0,"userVipPic":""},{"aliMallSeller":false,"anony":true,"appendComment":{"commentId":"","commentTime":"2017-05-12 10:22:12","content":"最近怎么老死机～","days":24,"pics":["//img.alicdn.com/bao/uploaded/i1/1080806037649395615/TB2_Pjqr0RopuFjSZFtXXcanpXa_!!0-rate.jpg"],"reply":""},"attributes":"","attributesMap":"","aucNumId":"","auctionPicUrl":"","auctionPrice":"","auctionSku":"颜色分类:银色;套餐类型:官方标配","auctionTitle":"","buyCount":0,"carServiceLocation":"","cmsSource":"天猫","displayRatePic":"","displayRateSum":0,"displayUserLink":"","displayUserNick":"丫***咚","displayUserNumId":"","displayUserRateLink":"","dsr":0.0,"fromMall":true,"fromMemory":0,"gmtCreateTime":1493743179000,"id":310235390625,"pics":"","picsSmall":"","position":"u0001","rateContent":"<b></b>此<b></b>用<b></b>户<b></b>没<b></b>有<b></b>填<b></b>写<b></b>评<b></b>论<b></b>!<b></b>","rateDate":"2017-05-03 00:39:39","reply":"","sellerId":1714128138,"serviceRateContent":"","structuredRateList":[],"tamllSweetLevel":0,"tmallSweetPic":"","tradeEndTime":1492447179000,"tradeId":"","useful":true,"userIdEncryption":"","userInfo":"","userVipLevel":0,"userVipPic":""},{"aliMallSeller":false,"anony":true,"appendComment":"","attributes":"","attributesMap":"","aucNumId":"","auctionPicUrl":"","auctionPrice":"","auctionSku":"颜色分类:金色;套餐类型:官方标配","auctionTitle":"","buyCount":0,"carServiceLocation":"","cmsSource":"天猫","displayRatePic":"","displayRateSum":0,"displayUserLink":"","displayUserNick":"她***鬼","displayUserNumId":"","displayUserRateLink":"","dsr":0.0,"fromMall":true,"fromMemory":0,"gmtCreateTime":1494672129000,"id":310297407875,"pics":"","picsSmall":"","position":"920-11-26,29;1230-13-30,38;920-11-22,25;","rateContent":"昨天晚上十一点下单的，今天早上九点就收到了。很轻薄，好看呀。就是电池有点发热。再用几天看看","rateDate":"2017-05-13 18:42:09","reply":"亲是酱紫的，因为笔记本电脑属于结构紧凑的产品，并且体积越小越容易导致内部热量不易散发。再加上小米笔记本电脑的外壳属于散热系统中非常重要的一部分，机身中的热量会通过外壳传递出来，且人体对温度非常敏感，只要超过体温一点，就会觉得发热，所以就会感觉到金属机身比较热。在机身较热时，大多数情况是在运行高负载的程序，如果没有出现异常情况，继续使用即可。因为电脑内有智能温度控制系统，过热会有保护机制并迫使电脑降速（CPU、GPU等降频），直至自动关机来保护电脑。感谢您的支持~","sellerId":1714128138,"serviceRateContent":"","structuredRateList":[],"tamllSweetLevel":3,"tmallSweetPic":"tmall-grade-t3-18.png","tradeEndTime":1494671972000,"tradeId":"","useful":true,"userIdEncryption":"","userInfo":"","userVipLevel":0,"userVipPic":""},{"aliMallSeller":false,"anony":true,"appendComment":"","attributes":"","attributesMap":"","aucNumId":"","auctionPicUrl":"","auctionPrice":"","auctionSku":"颜色分类:银色;套餐类型:官方标配","auctionTitle":"","buyCount":0,"carServiceLocation":"","cmsSource":"天猫","displayRatePic":"","displayRateSum":0,"displayUserLink":"","displayUserNick":"叫***好","displayUserNumId":"","displayUserRateLink":"","dsr":0.0,"fromMall":true,"fromMemory":0,"gmtCreateTime":1493014322000,"id":308479254778,"pics":"","picsSmall":"","position":"520-11-29,40;920-13-11,18;1130-11-29,40;","rateContent":"电脑不错，工艺也很好，但是做工有些差，有点地方缝隙比较大，但是质感不错而且也划算","rateDate":"2017-04-24 14:12:02","reply":"您好，小米力争把每一件产品都做到极致，材料，设计，质量，都是非常优秀的，抱歉未能满足您的期待，永远相信美好的事情即将发生，我们一定更加努力，用更好的产品来回报您的支持与喜爱。感谢您对小米官方旗舰店的支持。","sellerId":1714128138,"serviceRateContent":"","structuredRateList":[],"tamllSweetLevel":0,"tmallSweetPic":"","tradeEndTime":1492831210000,"tradeId":"","useful":true,"userIdEncryption":"","userInfo":"","userVipLevel":0,"userVipPic":""},{"aliMallSeller":false,"anony":true,"appendComment":{"commentId":"","commentTime":"2017-04-25 23:52:17","content":"??不错","days":1,"pics":"","reply":""},"attributes":"","attributesMap":"","aucNumId":"","auctionPicUrl":"","auctionPrice":"","auctionSku":"颜色分类:银色;套餐类型:官方标配","auctionTitle":"","buyCount":0,"carServiceLocation":"","cmsSource":"天猫","displayRatePic":"","displayRateSum":0,"displayUserLink":"","displayUserNick":"多***印","displayUserNumId":"","displayUserRateLink":"","dsr":0.0,"fromMall":true,"fromMemory":0,"gmtCreateTime":1492971053000,"id":308428512341,"pics":"","picsSmall":"","position":"920-11-12,18;1130-11-24,36;920-11-4,10;420-11-0,3;u0001","rateContent":"速度快 笔记本还不错  用起来挺爽的  清便  外观和macbook一样  阔以","rateDate":"2017-04-24 02:10:53","reply":"","sellerId":1714128138,"serviceRateContent":"","structuredRateList":[],"tamllSweetLevel":4,"tmallSweetPic":"tmall-grade-t4-18.png","tradeEndTime":1492970986000,"tradeId":"","useful":true,"userIdEncryption":"","userInfo":"","userVipLevel":0,"userVipPic":""},{"aliMallSeller":false,"anony":true,"appendComment":"","attributes":"","attributesMap":"","aucNumId":"","auctionPicUrl":"","auctionPrice":"","auctionSku":"颜色分类:金色;套餐类型:套餐一","auctionTitle":"","buyCount":0,"carServiceLocation":"","cmsSource":"天猫","displayRatePic":"","displayRateSum":0,"displayUserLink":"","displayUserNick":"d***n","displayUserNumId":"","displayUserRateLink":"","dsr":0.0,"fromMall":true,"fromMemory":0,"gmtCreateTime":1493337813000,"id":308627765973,"pics":"","picsSmall":"","position":"1930-11-0,9;920-11-10,20;920-11-21,23;","rateContent":"本子挺薄还比较满意，尤其免费鼠标的杠杠的，好用！！！","rateDate":"2017-04-28 08:03:33","reply":"让时间来说话，其实我也很害怕，在用过了之后，我们都知道不会错。嘿嘿，感谢您的支持。","sellerId":1714128138,"serviceRateContent":"","structuredRateList":[],"tamllSweetLevel":3,"tmallSweetPic":"tmall-grade-t3-18.png","tradeEndTime":1493187006000,"tradeId":"","useful":true,"userIdEncryption":"","userInfo":"","userVipLevel":0,"userVipPic":""},{"aliMallSeller":false,"anony":true,"appendComment":"","attributes":"","attributesMap":"","aucNumId":"","auctionPicUrl":"","auctionPrice":"","auctionSku":"颜色分类:银色;套餐类型:套餐一","auctionTitle":"","buyCount":0,"carServiceLocation":"","cmsSource":"天猫","displayRatePic":"","displayRateSum":0,"displayUserLink":"","displayUserNick":"鑫***你","displayUserNumId":"","displayUserRateLink":"","dsr":0.0,"fromMall":true,"fromMemory":0,"gmtCreateTime":1494736891000,"id":310479112243,"pics":"","picsSmall":"","position":"920-11-30,37;420-11-6,11;1230-12-24,29;1130-11-0,5;","rateContent":"外观很漂亮，收货也很快，收到以后看了一晚上电影，电板挺抗用！暂时还是很好的！","rateDate":"2017-05-14 12:41:31","reply":"","sellerId":1714128138,"serviceRateContent":"","structuredRateList":[],"tamllSweetLevel":2,"tmallSweetPic":"tmall-grade-t2-18.png","tradeEndTime":1494736820000,"tradeId":"","useful":true,"userIdEncryption":"","userInfo":"","userVipLevel":0,"userVipPic":""},{"aliMallSeller":false,"anony":true,"appendComment":"","attributes":"","attributesMap":"","aucNumId":"","auctionPicUrl":"","auctionPrice":"","auctionSku":"颜色分类:金色;套餐类型:官方标配","auctionTitle":"","buyCount":0,"carServiceLocation":"","cmsSource":"天猫","displayRatePic":"","displayRateSum":0,"displayUserLink":"","displayUserNick":"m***汪","displayUserNumId":"","displayUserRateLink":"","dsr":0.0,"fromMall":true,"fromMemory":0,"gmtCreateTime":1494811178000,"id":310634682835,"pics":"","picsSmall":"","position":"920-11-0,4;920-11-18,25;920-11-5,9;","rateContent":"配置合理，做工精细。刚拿出来就摔了，所以要小心使用。","rateDate":"2017-05-15 09:19:38","reply":"","sellerId":1714128138,"serviceRateContent":"","structuredRateList":[],"tamllSweetLevel":3,"tmallSweetPic":"tmall-grade-t3-18.png","tradeEndTime":1494811029000,"tradeId":"","useful":true,"userIdEncryption":"","userInfo":"","userVipLevel":0,"userVipPic":""},{"aliMallSeller":false,"anony":true,"appendComment":"","attributes":"","attributesMap":"","aucNumId":"","auctionPicUrl":"","auctionPrice":"","auctionSku":"颜色分类:银色;套餐类型:官方标配","auctionTitle":"","buyCount":0,"carServiceLocation":"","cmsSource":"天猫","displayRatePic":"","displayRateSum":0,"displayUserLink":"","displayUserNick":"刘***5","displayUserNumId":"","displayUserRateLink":"","dsr":0.0,"fromMall":true,"fromMemory":0,"gmtCreateTime":1494488688000,"id":310050898802,"pics":"","picsSmall":"","position":"1730-13-5,9;920-13-10,15;","rateContent":"第一次用，就卡死了。处理器不行","rateDate":"2017-05-11 15:44:48","reply":"亲，很抱歉给您带来不愉快的感受，我们会针对您在使用过程中反馈的问题不断进行改进、优化，同时也希望您继续关注我们，希望能为您提供更好的服务体验。如后期您有任何疑问和需求，可以旺旺联系在线客服帮您解答，祝您生活愉快！","sellerId":1714128138,"serviceRateContent":"","structuredRateList":[],"tamllSweetLevel":2,"tmallSweetPic":"tmall-grade-t2-18.png","tradeEndTime":1494488572000,"tradeId":"","useful":true,"userIdEncryption":"","userInfo":"","userVipLevel":0,"userVipPic":""},{"aliMallSeller":false,"anony":false,"appendComment":{"commentId":"","commentTime":"2017-05-12 13:23:39","content":"第一次用就死机，屏幕箭头无法移动。原因待查明。","days":22,"pics":"","reply":""},"attributes":"","attributesMap":"","aucNumId":"","auctionPicUrl":"","auctionPrice":"","auctionSku":"颜色分类:金色;套餐类型:官方标配","auctionTitle":"","buyCount":0,"carServiceLocation":"","cmsSource":"天猫","displayRatePic":"","displayRateSum":0,"displayUserLink":"","displayUserNick":"p***5","displayUserNumId":"","displayUserRateLink":"","dsr":0.0,"fromMall":true,"fromMemory":0,"gmtCreateTime":1493878705000,"id":310412723711,"pics":"","picsSmall":"","position":"u0001","rateContent":"<b></b>此<b></b>用<b></b>户<b></b>没<b></b>有<b></b>填<b></b>写<b></b>评<b></b>论<b></b>!<b></b>","rateDate":"2017-05-04 14:18:25","reply":"","sellerId":1714128138,"serviceRateContent":"","structuredRateList":[],"tamllSweetLevel":4,"tmallSweetPic":"tmall-grade-t4-18.png","tradeEndTime":1492582705000,"tradeId":"","useful":true,"userIdEncryption":"","userInfo":"","userVipLevel":0,"userVipPic":""},{"aliMallSeller":false,"anony":false,"appendComment":"","attributes":"","attributesMap":"","aucNumId":"","auctionPicUrl":"","auctionPrice":"","auctionSku":"颜色分类:银色;套餐类型:官方标配","auctionTitle":"","buyCount":0,"carServiceLocation":"","cmsSource":"天猫","displayRatePic":"","displayRateSum":0,"displayUserLink":"","displayUserNick":"丿***狼","displayUserNumId":"","displayUserRateLink":"","dsr":0.0,"fromMall":true,"fromMemory":0,"gmtCreateTime":1493984241000,"id":309456402233,"pics":["//img.alicdn.com/bao/uploaded/i3/1988906032278672458/TB2ODt2q7qvpuFjSZFhXXaOgXXa_!!0-rate.jpg","//img.alicdn.com/bao/uploaded/i2/1988906032359863461/TB2QZLOgr_0UKFjy1XaXXbKfXXa_!!0-rate.jpg","//img.alicdn.com/bao/uploaded/i3/1988906032407593646/TB2Wwh1obBkpuFjy1zkXXbSpFXa_!!0-rate.jpg","//img.alicdn.com/bao/uploaded/i4/1988906032465564714/TB2ecqCom0jpuFjy0FlXXc0bpXa_!!0-rate.jpg","//img.alicdn.com/bao/uploaded/i4/1988906032517503586/TB2XvqPq90mpuFjSZPiXXbssVXa_!!0-rate.jpg"],"picsSmall":"","position":"920-11-33,38;","rateContent":"真的是特嘛呵呵了，，，，，，老子本来打算以后就买你家的东西了，，，支持个国产，，，，，，，，，，这就是官网？，，，这就是客服？，，，这就是你们的售后？？，，，这就是你们整天炒作吹出来的公司？，，，，，，，以后，我们家，，包括我的家人，朋友，，只要是提到小米，，，，，我就会跟他说，，，垃，圾","rateDate":"2017-05-05 19:37:21","reply":"亲亲，感谢您监督和反馈，给您带来服务上不好的体验真的很抱歉，您所反馈的客服问题我们非常重视，我们会查看客服聊天记录、辅导员工、提升服务水平，一定给您带来更好的服务体验，欢迎您下次光临，祝您生活愉快。","sellerId":1714128138,"serviceRateContent":"","structuredRateList":[],"tamllSweetLevel":3,"tmallSweetPic":"tmall-grade-t3-18.png","tradeEndTime":1493983606000,"tradeId":"","useful":true,"userIdEncryption":"","userInfo":"","userVipLevel":0,"userVipPic":""},{"aliMallSeller":false,"anony":true,"appendComment":"","attributes":"","attributesMap":"","aucNumId":"","auctionPicUrl":"","auctionPrice":"","auctionSku":"颜色分类:金色;套餐类型:套餐四","auctionTitle":"","buyCount":0,"carServiceLocation":"","cmsSource":"天猫","displayRatePic":"","displayRateSum":0,"displayUserLink":"","displayUserNick":"j***啊","displayUserNumId":"","displayUserRateLink":"","dsr":0.0,"fromMall":true,"fromMemory":0,"gmtCreateTime":1494430784000,"id":309990188727,"pics":"","picsSmall":"","position":"920-11-16,23;920-11-31,47;920-11-24,30;10420-12-48,66;","rateContent":"特意用了一天来评价，只做办公用，完全能满足需求，关键是很轻薄，我出差开会抱着跑来跑去的都很方便 只联系了一次售后问发货的问题没人理我","rateDate":"2017-05-10 23:39:44","reply":"我们爱米粉~自从有了米粉，我们每天都有更多的动力，我们每天都为了让您开心而更努力，因为米粉懂我，因为米粉支持我，风雨无阻，我们一起共同谱写未来，我们一起加油，有米粉相伴，我会继续前进。感谢您的支持~O(&cap;_&cap;)O~","sellerId":1714128138,"serviceRateContent":"","structuredRateList":[],"tamllSweetLevel":2,"tmallSweetPic":"tmall-grade-t2-18.png","tradeEndTime":1494306996000,"tradeId":"","useful":true,"userIdEncryption":"","userInfo":"","userVipLevel":0,"userVipPic":""}],"searchinfo":"","tags":""}